<svg xmlns="http://www.w3.org/2000/svg" xmlns:xlink="http://www.w3.org/1999/xlink" preserveAspectRatio="xMidYMid" width="1050.219" height="1053.37" viewBox="0 0 1050.219 1053.37">
  <defs>
    <style>
      .cls-1 {
        fill: #ffea96;
        fill-rule: evenodd;
      }
    </style>
  </defs>
  <path d="M646.431,1045.744 C643.711,1046.551 640.915,1047.248 638.128,1047.845 C627.796,1050.212 617.447,1051.009 606.643,1050.236 C594.282,1049.341 583.749,1045.305 573.591,1041.416 C562.227,1037.055 551.479,1032.922 539.071,1033.686 C536.786,1033.818 534.489,1033.692 532.236,1033.305 C529.805,1033.846 527.331,1034.090 524.818,1034.009 C519.159,1033.871 513.599,1034.692 507.309,1036.558 C501.688,1038.225 496.279,1040.494 490.565,1042.881 C484.667,1045.385 478.576,1047.930 472.049,1049.866 C467.109,1051.332 462.449,1052.295 457.830,1052.767 C447.048,1053.892 436.694,1053.437 426.198,1051.401 C415.863,1049.535 405.772,1046.146 396.291,1041.289 C385.258,1035.629 377.136,1027.810 369.312,1020.244 C361.484,1012.706 354.102,1005.554 344.330,1001.145 C343.527,1000.890 342.683,1000.585 341.864,1000.242 C330.376,995.416 318.874,995.748 306.699,996.079 C295.812,996.399 284.556,996.714 272.589,993.434 C262.310,990.624 252.538,986.354 243.601,980.689 C234.513,975.150 226.565,968.498 219.382,960.452 C211.163,951.192 206.436,940.967 201.845,931.074 C196.743,920.010 191.904,909.565 182.510,901.432 C181.423,900.450 180.450,899.500 179.588,898.491 C178.126,897.470 176.782,896.318 175.594,895.106 C166.880,886.322 156.123,882.238 144.740,877.896 C134.549,874.024 124.025,870.008 114.238,862.438 C105.818,855.930 98.435,848.259 92.303,839.586 C86.040,831.028 81.220,821.835 77.662,811.609 C73.564,799.899 73.104,788.632 72.647,777.749 C72.140,765.560 71.676,754.080 66.098,742.984 C64.338,739.489 63.296,735.821 62.977,732.048 C60.275,729.181 58.190,725.808 56.782,722.070 C52.368,710.484 44.200,702.376 35.573,693.780 C27.824,686.069 19.850,678.136 13.983,667.193 C8.918,657.830 5.306,647.802 3.219,637.404 C0.978,627.068 0.299,616.728 1.197,605.922 C2.218,593.547 6.369,583.069 10.388,572.962 C14.898,561.624 19.138,550.911 18.545,538.511 C18.435,536.121 18.589,533.818 19.005,531.589 C18.495,529.190 18.277,526.685 18.385,524.131 C18.860,511.651 14.520,500.980 9.916,489.684 C5.833,479.605 1.591,469.153 0.459,456.837 C-0.532,446.209 0.053,435.560 2.192,425.209 C4.204,414.787 7.634,405.008 12.653,395.410 C18.443,384.465 26.363,376.460 34.017,368.698 C42.588,360.046 50.671,351.851 55.003,340.185 C55.296,339.332 55.656,338.567 56.011,337.803 C56.422,336.420 56.898,335.154 57.469,333.928 C62.591,322.597 62.598,311.087 62.605,298.906 C62.607,288.011 62.610,276.728 66.230,264.887 C69.364,254.502 73.800,245.130 79.786,236.258 C85.543,227.350 92.417,219.583 100.695,212.593 C110.183,204.635 120.535,200.192 130.550,195.919 C139.672,192.027 148.291,188.330 155.690,182.215 C161.691,174.307 164.977,165.254 168.449,155.680 C172.167,145.439 175.988,134.864 183.394,124.978 C189.777,116.442 197.346,108.923 205.889,102.668 C214.346,96.275 223.453,91.310 233.626,87.549 C245.220,83.290 256.556,82.651 267.410,82.052 C276.323,81.520 284.747,81.056 292.938,78.626 C294.147,78.267 295.337,77.876 296.510,77.430 C305.332,72.062 311.743,64.407 318.536,56.332 C325.549,47.996 332.795,39.363 343.188,32.614 C351.902,26.949 361.317,22.579 371.159,19.658 L371.977,19.422 L372.670,19.210 C382.664,16.245 392.660,14.811 403.202,14.806 C415.597,14.794 426.382,18.077 436.808,21.239 C448.471,24.787 459.484,28.125 471.802,26.493 C474.078,26.207 476.363,26.177 478.633,26.392 C480.900,25.684 483.436,25.274 485.956,25.158 C490.156,24.971 494.291,24.236 498.621,22.950 C505.821,20.814 512.479,17.431 519.540,13.857 C526.967,10.084 534.636,6.185 543.350,3.599 C546.068,2.793 548.816,2.148 551.486,1.674 C562.091,-0.216 572.450,-0.492 583.139,0.807 C593.708,1.925 603.720,4.527 613.688,8.751 C625.090,13.581 633.734,20.829 642.101,27.806 C651.439,35.632 660.275,43.012 672.233,46.337 C674.424,46.946 676.553,47.784 678.549,48.881 C681.013,49.154 683.449,49.745 685.820,50.631 C697.472,54.977 708.968,54.190 721.123,53.363 C731.995,52.620 743.214,51.865 755.278,54.632 C765.650,57.009 775.558,60.913 784.767,66.206 C793.947,71.318 802.403,77.788 809.786,85.472 C818.395,94.378 823.521,104.418 828.487,114.120 C834.046,124.964 839.277,135.195 849.000,142.952 C850.818,144.417 852.424,146.035 853.840,147.779 C855.969,148.983 857.997,150.484 859.837,152.214 C868.860,160.767 879.740,164.542 891.244,168.541 C901.553,172.103 912.182,175.786 922.221,183.072 C930.844,189.360 938.451,196.813 944.801,205.251 C951.248,213.517 956.508,222.813 960.308,232.759 C964.733,244.306 965.524,255.547 966.326,266.407 C967.191,278.577 968.014,290.052 973.948,300.997 C975.055,303.053 975.907,305.190 976.494,307.347 C978.007,309.296 979.258,311.433 980.276,313.737 C985.233,325.149 993.785,332.869 1002.833,341.035 C1010.905,348.352 1019.261,355.904 1025.639,366.518 C1031.243,375.837 1035.217,385.418 1037.797,395.783 C1040.504,405.968 1041.689,416.553 1041.293,427.164 C1040.854,439.546 1037.203,450.177 1033.669,460.517 C1029.742,472.022 1025.998,482.910 1027.183,495.299 C1027.410,497.537 1027.370,499.830 1027.055,502.148 C1027.685,504.544 1028.012,507.040 1028.014,509.539 C1028.154,521.940 1032.973,532.389 1038.090,543.428 C1042.699,553.326 1047.451,563.548 1049.166,575.822 C1050.644,586.329 1050.570,596.960 1048.932,607.485 C1047.417,617.943 1044.384,628.150 1039.884,637.753 C1034.661,648.983 1027.139,657.356 1019.848,665.466 C1011.682,674.510 1004.010,683.087 1000.259,694.946 C999.561,697.154 998.620,699.247 997.454,701.202 C997.086,703.668 996.429,706.066 995.488,708.347 C990.730,719.848 991.108,731.372 991.500,743.560 C991.857,754.442 992.229,765.693 989.022,777.647 C986.188,788.163 982.073,797.684 976.394,806.718 C971.004,815.677 964.202,823.901 956.275,831.030 C947.057,839.312 936.841,844.083 926.982,848.690 C915.941,853.842 905.526,858.718 897.430,868.168 C895.938,869.908 894.257,871.495 892.422,872.848 C891.125,874.963 889.578,876.895 887.805,878.657 C878.937,887.365 874.784,898.110 870.397,909.460 C866.464,919.638 862.402,930.127 854.774,939.897 C848.102,948.454 840.578,955.589 831.786,961.724 C823.233,967.952 814.016,972.706 803.760,976.240 C792.092,980.236 780.748,980.647 769.888,981.036 C760.561,981.376 751.763,981.691 743.200,984.232 C740.328,985.083 737.680,986.120 735.096,987.413 C733.046,988.406 730.862,989.215 728.666,989.752 C726.643,991.192 724.436,992.377 722.116,993.310 C710.550,997.847 702.550,1006.098 694.060,1014.849 C686.473,1022.632 678.634,1030.765 667.793,1036.743 C660.938,1040.531 653.757,1043.570 646.431,1045.744 Z" class="cls-1"/>
</svg>
