<?xml version="1.0" encoding="utf-8"?>
<!-- Generator: Adobe Illustrator 17.0.0, SVG Export Plug-In . SVG Version: 6.00 Build 0)  -->
<!DOCTYPE svg PUBLIC "-//W3C//DTD SVG 1.1//EN" "http://www.w3.org/Graphics/SVG/1.1/DTD/svg11.dtd">
<svg version="1.1" id="Layer_1" xmlns="http://www.w3.org/2000/svg" xmlns:xlink="http://www.w3.org/1999/xlink" x="0px" y="0px"
	 width="259.728px" height="97.022px" viewBox="17.136 19.01 259.728 97.022" enable-background="new 17.136 19.01 259.728 97.022"
	 xml:space="preserve">
<g>
	<path fill="#444B52" d="M151.606,61.534c3.026-3.48,2.891-9.011,3.429-14.145c0.204-1.939,1.312-1.426,2.048-0.454
		c4.149,5.496,7.809,11.27,13.21,14.841c3.296,2.179,8.535,2.179,8.284-0.54c-1.076-11.656-1.421-23.836,0.072-36.097
		c0.101-0.826,0.051-1.537-0.115-2.147l0.005,0.003c0,0-0.005-0.015-0.008-0.022c-0.015-0.063-0.04-0.122-0.057-0.181
		c-0.027-0.079-0.054-0.159-0.083-0.235c-0.025-0.063-0.052-0.119-0.079-0.18c-0.032-0.068-0.063-0.135-0.1-0.2
		c-0.03-0.057-0.063-0.115-0.094-0.169c-0.04-0.063-0.079-0.121-0.121-0.179c-0.035-0.052-0.07-0.104-0.107-0.151
		c-0.047-0.058-0.096-0.113-0.143-0.168c-0.04-0.042-0.074-0.086-0.114-0.127c-0.071-0.069-0.144-0.135-0.219-0.199
		c-0.057-0.045-0.115-0.092-0.171-0.134c-0.064-0.046-0.126-0.095-0.194-0.139c-0.051-0.034-0.103-0.061-0.154-0.088
		c-0.061-0.038-0.121-0.071-0.181-0.101c-0.058-0.029-0.111-0.055-0.17-0.08c-0.062-0.027-0.122-0.055-0.185-0.079
		c-0.061-0.023-0.121-0.045-0.18-0.065c-0.064-0.022-0.131-0.043-0.197-0.062c-0.062-0.015-0.122-0.033-0.185-0.05
		c-0.072-0.018-0.145-0.031-0.216-0.043c-0.06-0.011-0.118-0.024-0.178-0.036c-0.126-0.017-0.253-0.031-0.382-0.04
		c-0.064-0.005-0.125-0.005-0.187-0.006c-0.079-0.004-0.154-0.006-0.228-0.006c-0.069,0-0.137,0.003-0.207,0.004
		c-0.072,0.003-0.143,0.005-0.215,0.011c-0.071,0.005-0.142,0.012-0.213,0.021c-0.069,0.006-0.141,0.014-0.212,0.025
		c-0.073,0.013-0.144,0.022-0.214,0.036c-0.071,0.013-0.146,0.028-0.216,0.045c-0.07,0.014-0.142,0.028-0.211,0.046
		c-0.075,0.018-0.152,0.043-0.228,0.064c-0.106,0.032-0.213,0.066-0.319,0.103c-0.09,0.03-0.178,0.061-0.266,0.096
		c-0.07,0.025-0.138,0.059-0.206,0.087c-0.068,0.03-0.139,0.06-0.206,0.091c-0.071,0.033-0.136,0.068-0.206,0.104
		c-0.064,0.033-0.13,0.068-0.194,0.103c-0.068,0.038-0.136,0.076-0.2,0.118c-0.064,0.039-0.127,0.078-0.189,0.12
		c-0.063,0.04-0.129,0.083-0.195,0.131c-0.062,0.039-0.121,0.087-0.179,0.132c-0.061,0.045-0.124,0.095-0.184,0.141
		c-0.065,0.055-0.127,0.111-0.19,0.167c-0.096,0.085-0.191,0.175-0.283,0.267c-0.056,0.057-0.116,0.116-0.173,0.177
		c-0.051,0.059-0.103,0.119-0.15,0.178c-0.052,0.058-0.102,0.117-0.148,0.178c-0.049,0.062-0.096,0.127-0.14,0.192
		c-0.048,0.062-0.092,0.127-0.134,0.191c-0.044,0.066-0.086,0.134-0.127,0.201c-0.042,0.069-0.08,0.14-0.119,0.208
		c-0.037,0.07-0.075,0.141-0.109,0.21c-0.04,0.078-0.073,0.16-0.108,0.24c-0.031,0.069-0.062,0.133-0.088,0.205l-0.005,0.013
		l0.002-0.003c-0.058,0.15-0.114,0.3-0.159,0.458c-1.954,6.733-2.042,11.349-2.236,12.27c-0.274,1.32-0.886,1.757-1.584,1.189
		c-0.042-0.033-0.083-0.07-0.127-0.11c-0.013-0.016-0.027-0.028-0.044-0.042c-0.056-0.06-0.114-0.126-0.172-0.198
		c-1.357-1.69-2.641-3.438-3.913-5.142c-2.795-3.747-5.523-7.268-8.799-9.434c-0.023-0.016-0.046-0.027-0.069-0.043
		c-0.138-0.09-0.273-0.178-0.405-0.26c-0.062-0.035-0.119-0.07-0.179-0.103c-0.099-0.061-0.199-0.118-0.295-0.174
		c-0.063-0.035-0.126-0.07-0.189-0.104c-0.093-0.051-0.184-0.101-0.276-0.145c-0.059-0.033-0.121-0.064-0.18-0.096
		c-0.097-0.045-0.188-0.088-0.281-0.132c-0.055-0.025-0.11-0.05-0.163-0.076c-0.118-0.052-0.236-0.1-0.35-0.147
		c-0.026-0.01-0.05-0.021-0.075-0.031c-0.139-0.056-0.274-0.105-0.409-0.15c-0.046-0.015-0.087-0.029-0.133-0.043
		c-0.09-0.028-0.183-0.057-0.274-0.083c-0.048-0.014-0.096-0.026-0.146-0.041c-0.084-0.021-0.165-0.042-0.244-0.059
		c-0.05-0.014-0.1-0.023-0.15-0.034c-0.079-0.017-0.159-0.028-0.238-0.044c-0.045-0.008-0.088-0.017-0.131-0.021
		c-0.095-0.016-0.188-0.026-0.281-0.034c-0.025-0.003-0.05-0.007-0.076-0.011c-0.115-0.01-0.226-0.016-0.339-0.018
		c-0.032,0-0.064,0-0.094,0c-0.081,0-0.159,0-0.234,0.004c-0.041,0.003-0.077,0.005-0.116,0.009
		c-0.068,0.002-0.135,0.011-0.201,0.018c-0.038,0.003-0.078,0.009-0.116,0.015c-0.065,0.009-0.128,0.021-0.19,0.033
		c-0.036,0.006-0.071,0.015-0.105,0.021c-0.072,0.016-0.141,0.035-0.207,0.053c-0.024,0.009-0.048,0.013-0.071,0.022
		c-0.092,0.025-0.178,0.057-0.261,0.091c-0.022,0.008-0.044,0.02-0.065,0.028c-0.063,0.029-0.125,0.055-0.185,0.086
		c-0.027,0.012-0.056,0.03-0.086,0.045c-0.05,0.029-0.099,0.056-0.146,0.086c-0.028,0.017-0.057,0.035-0.086,0.054
		c-0.046,0.031-0.091,0.062-0.134,0.095c-0.028,0.021-0.053,0.039-0.078,0.059c-0.049,0.038-0.092,0.078-0.137,0.116
		c-0.02,0.018-0.04,0.036-0.06,0.054c-0.062,0.058-0.121,0.121-0.175,0.182c-0.015,0.016-0.029,0.032-0.042,0.047
		c-0.041,0.051-0.08,0.097-0.121,0.151c-0.019,0.027-0.037,0.052-0.058,0.079c-0.029,0.046-0.057,0.089-0.087,0.134
		c-0.019,0.031-0.037,0.06-0.057,0.091c-0.025,0.046-0.05,0.092-0.075,0.138c-0.015,0.032-0.031,0.061-0.046,0.096
		c-0.025,0.05-0.048,0.1-0.071,0.154c-0.01,0.028-0.027,0.059-0.035,0.089c-0.032,0.079-0.062,0.163-0.089,0.247
		c-0.004,0.02-0.01,0.041-0.015,0.062c-0.02,0.057-0.034,0.116-0.05,0.176l0.002-0.003c-0.12,0.502-0.15,1.051-0.081,1.634
		c1.293,11.148,0.538,22.425-0.904,33.788C141.576,65.611,148.559,65.032,151.606,61.534L151.606,61.534z"/>
	<path fill="#444B52" d="M200.917,64.012c3.33,0.061,6.525-1.137,9.193-3.264c0.047,0.131,0.095,0.264,0.145,0.396
		c1.898,5.011,13.982,5.732,11.62-0.617c-3.317-8.921-4.636-25.141-3.936-35.846c0.041-0.666-0.015-1.243-0.149-1.748l0.002,0.002
		c-0.002-0.007-0.006-0.013-0.01-0.02c-0.019-0.075-0.043-0.149-0.066-0.222c-0.015-0.044-0.031-0.09-0.049-0.134
		c-0.026-0.07-0.054-0.137-0.083-0.203c-0.018-0.043-0.038-0.085-0.06-0.125c-0.03-0.065-0.062-0.127-0.098-0.187
		c-0.021-0.039-0.044-0.078-0.069-0.114c-0.035-0.059-0.074-0.117-0.112-0.172c-0.022-0.035-0.05-0.067-0.076-0.099
		c-0.043-0.055-0.083-0.112-0.13-0.16c-0.022-0.028-0.048-0.054-0.071-0.079c-0.176-0.184-0.367-0.345-0.576-0.485
		c-0.025-0.018-0.047-0.034-0.069-0.049c-0.058-0.038-0.119-0.069-0.179-0.104c-0.035-0.02-0.068-0.039-0.103-0.054
		c-0.06-0.034-0.121-0.06-0.18-0.088c-0.039-0.017-0.081-0.035-0.119-0.051c-0.06-0.024-0.122-0.046-0.182-0.067
		c-0.044-0.017-0.088-0.034-0.132-0.046c-0.061-0.019-0.123-0.037-0.185-0.054c-0.045-0.012-0.095-0.024-0.14-0.034
		c-0.062-0.016-0.124-0.032-0.187-0.043c-0.049-0.008-0.099-0.017-0.148-0.023c-0.064-0.011-0.127-0.023-0.192-0.028
		c-0.052-0.009-0.102-0.013-0.153-0.017c-0.115-0.009-0.23-0.016-0.345-0.019c-0.062-0.001-0.124-0.005-0.183-0.005
		c-0.059,0.003-0.119,0.004-0.179,0.007c-0.061,0.002-0.124,0.003-0.186,0.005c-0.057,0.005-0.115,0.01-0.175,0.015
		c-0.064,0.008-0.128,0.013-0.191,0.022c-0.058,0.006-0.116,0.014-0.177,0.025c-0.062,0.009-0.127,0.02-0.193,0.03
		c-0.058,0.013-0.116,0.024-0.171,0.036c-0.067,0.013-0.133,0.029-0.201,0.045c-0.055,0.012-0.11,0.026-0.167,0.04
		c-0.07,0.02-0.138,0.041-0.208,0.061c-0.053,0.016-0.104,0.029-0.154,0.046c-0.08,0.026-0.161,0.053-0.239,0.083
		c-0.04,0.016-0.08,0.026-0.122,0.044c-0.117,0.044-0.233,0.092-0.349,0.143c-0.034,0.016-0.067,0.031-0.101,0.047
		c-0.082,0.039-0.168,0.076-0.248,0.119c-0.044,0.023-0.088,0.046-0.135,0.071c-0.067,0.035-0.138,0.074-0.204,0.113
		c-0.048,0.028-0.096,0.055-0.139,0.084c-0.064,0.039-0.128,0.08-0.192,0.12c-0.046,0.03-0.09,0.06-0.136,0.093
		c-0.062,0.041-0.124,0.085-0.184,0.129c-0.043,0.033-0.086,0.063-0.129,0.097c-0.06,0.047-0.119,0.097-0.178,0.145
		c-0.042,0.033-0.082,0.067-0.12,0.1c-0.063,0.054-0.122,0.111-0.181,0.167c-0.035,0.031-0.068,0.063-0.103,0.096
		c-0.081,0.08-0.16,0.165-0.236,0.251c-0.007,0.008-0.017,0.017-0.025,0.024c-1.192-0.696-2.579-1.27-4.19-1.695
		c-0.966-0.254-2.014-0.455-3.151-0.598c-0.337-0.042-0.672-0.072-1.003-0.095c-0.076-0.009-0.152-0.013-0.228-0.017
		c-0.328-0.02-0.656-0.037-0.976-0.042c-0.031,0-0.06,0-0.089,0c-0.3-0.001-0.597,0.004-0.891,0.013
		c-0.072,0.005-0.143,0.006-0.212,0.011c-0.317,0.014-0.626,0.035-0.932,0.067c-0.049,0.007-0.094,0.011-0.142,0.016
		c-0.273,0.03-0.546,0.066-0.814,0.108c-0.065,0.009-0.131,0.019-0.195,0.03c-0.299,0.047-0.593,0.106-0.883,0.169
		c-0.061,0.013-0.123,0.03-0.182,0.044c-0.25,0.057-0.501,0.119-0.748,0.189c-0.058,0.019-0.118,0.033-0.181,0.049
		c-0.278,0.082-0.554,0.171-0.825,0.264c-0.071,0.024-0.138,0.051-0.209,0.075c-0.234,0.083-0.463,0.171-0.692,0.267
		c-0.054,0.021-0.109,0.041-0.16,0.067c-0.261,0.106-0.518,0.227-0.772,0.349c-0.075,0.037-0.15,0.074-0.224,0.11
		c-0.222,0.111-0.437,0.226-0.652,0.345c-0.042,0.024-0.091,0.05-0.137,0.074c-0.24,0.138-0.475,0.281-0.709,0.43
		c-0.081,0.051-0.159,0.103-0.237,0.154c-0.208,0.137-0.414,0.278-0.618,0.426c-0.065,0.045-0.129,0.095-0.193,0.142
		c-0.189,0.139-0.375,0.284-0.556,0.432c-0.082,0.063-0.162,0.129-0.242,0.195c-0.206,0.173-0.406,0.348-0.605,0.529
		c-0.065,0.059-0.127,0.117-0.19,0.178c-0.15,0.142-0.299,0.286-0.447,0.434c-0.078,0.08-0.157,0.159-0.232,0.24
		c-0.185,0.189-0.366,0.383-0.542,0.583c-0.071,0.08-0.139,0.16-0.21,0.243c-0.126,0.147-0.251,0.298-0.374,0.448
		c-0.073,0.092-0.145,0.181-0.216,0.274c-0.166,0.208-0.324,0.421-0.48,0.638c-0.07,0.096-0.138,0.194-0.206,0.294
		c-0.109,0.157-0.217,0.316-0.321,0.475c-0.065,0.102-0.131,0.2-0.193,0.3c-0.131,0.205-0.257,0.411-0.381,0.62
		c0.003-0.005,0.009-0.011,0.012-0.014c-2.037,3.474-3.288,7.748-3.529,12.53C179.219,55.577,190.739,63.827,200.917,64.012
		L200.917,64.012z M204.532,51.23c-0.282,0.303-0.582,0.58-0.9,0.825c-0.004,0.005-0.009,0.007-0.013,0.009
		c-0.148,0.113-0.303,0.22-0.461,0.319c-0.017,0.01-0.032,0.02-0.048,0.029c-0.162,0.101-0.327,0.193-0.502,0.278
		c-0.01,0.006-0.022,0.01-0.032,0.016c-0.155,0.074-0.314,0.141-0.476,0.201c-0.035,0.013-0.07,0.026-0.104,0.037
		c-0.173,0.063-0.351,0.119-0.535,0.161c-0.015,0.004-0.032,0.008-0.047,0.01c-0.164,0.041-0.336,0.071-0.507,0.097
		c-0.047,0.006-0.096,0.013-0.145,0.019c-0.191,0.023-0.381,0.042-0.582,0.047h-0.001c-0.508-0.026-1.021-0.06-1.533-0.108
		c-0.037-0.007-0.076-0.014-0.117-0.019c-0.087-0.017-0.177-0.031-0.266-0.052c-0.072-0.015-0.145-0.03-0.218-0.047
		c-0.088-0.022-0.175-0.042-0.263-0.064c-0.073-0.023-0.147-0.045-0.22-0.065c-0.086-0.025-0.172-0.051-0.256-0.079
		c-0.075-0.025-0.149-0.049-0.222-0.075c-0.085-0.031-0.168-0.06-0.255-0.094c-0.074-0.028-0.143-0.058-0.218-0.088
		c-0.083-0.034-0.169-0.07-0.252-0.11c-0.071-0.029-0.142-0.061-0.212-0.096c-0.085-0.039-0.168-0.079-0.254-0.125
		c-0.068-0.033-0.137-0.069-0.205-0.106c-0.083-0.046-0.169-0.095-0.251-0.141c-0.067-0.039-0.133-0.077-0.2-0.119
		c-0.083-0.051-0.165-0.102-0.25-0.157c-0.063-0.041-0.126-0.081-0.189-0.125c-0.084-0.058-0.17-0.115-0.253-0.176
		c-0.058-0.043-0.118-0.086-0.177-0.129c-0.085-0.065-0.17-0.133-0.254-0.201c-0.054-0.046-0.11-0.087-0.161-0.132
		c-0.091-0.075-0.179-0.152-0.266-0.23c-0.048-0.042-0.093-0.082-0.14-0.124c-0.099-0.093-0.195-0.185-0.289-0.282
		c-0.033-0.033-0.066-0.063-0.098-0.097c-0.128-0.131-0.254-0.264-0.374-0.403c-1.765-2.001-2.908-4.8-2.749-8.177
		c0.336-7.149,4.574-11.894,10.445-11.359C208.162,30.995,209.582,45.725,204.532,51.23L204.532,51.23z"/>
	<path fill="#444B52" d="M232.675,61.038c1.886-3.451,1.721-8.512,1.813-13.463c0.034-1.915,0.897-2.543,2.163-1.013
		c1.931,2.342,3.739,4.692,5.802,6.115c2.026,1.392,3.955,1.591,6.135,0.267c2.53-1.538,3.742-3.77,4.846-6.214
		c0.531-1.175,1.596-0.77,1.778,0.385c1.097,6.903,3.259,12.518,7.591,15.775c4.764,3.58,11.216,0.277,8.15-5.953
		c-3.864-7.859-7.098-18.625-8.19-31.021c-0.093-1.078-0.366-2.113-0.78-3.028l0.005,0.007c-0.019-0.049-0.044-0.092-0.067-0.139
		c-0.023-0.052-0.049-0.108-0.075-0.16c-0.047-0.093-0.093-0.182-0.142-0.271c-0.03-0.056-0.063-0.111-0.094-0.165
		c-0.054-0.09-0.106-0.177-0.161-0.262c-0.031-0.048-0.064-0.096-0.095-0.142c-0.043-0.067-0.088-0.13-0.135-0.193
		c-0.032-0.048-0.068-0.095-0.103-0.141c-0.048-0.06-0.096-0.12-0.145-0.177c-0.034-0.043-0.067-0.087-0.103-0.126
		c-0.067-0.074-0.135-0.146-0.204-0.216c-0.033-0.037-0.066-0.069-0.1-0.103c-0.073-0.072-0.147-0.14-0.224-0.206
		c-0.034-0.031-0.073-0.061-0.112-0.092c-0.059-0.047-0.119-0.095-0.178-0.139c-0.041-0.031-0.08-0.059-0.125-0.088
		c-0.061-0.044-0.125-0.083-0.188-0.124c-0.039-0.023-0.079-0.048-0.119-0.071c-0.089-0.05-0.176-0.095-0.268-0.14
		c-0.026-0.011-0.052-0.022-0.077-0.036c-0.096-0.043-0.192-0.079-0.292-0.116c-0.038-0.014-0.081-0.024-0.12-0.037
		c-0.072-0.024-0.148-0.044-0.223-0.061c-0.044-0.014-0.088-0.024-0.132-0.033c-0.076-0.014-0.153-0.028-0.231-0.038
		c-0.044-0.005-0.083-0.012-0.126-0.017c-0.11-0.011-0.218-0.017-0.332-0.018c-0.015,0-0.03,0-0.046,0
		c-0.115,0-0.231,0.007-0.347,0.018c-0.043,0.003-0.087,0.01-0.129,0.017c-0.084,0.01-0.17,0.023-0.255,0.042
		c-0.047,0.009-0.093,0.019-0.142,0.032c-0.086,0.019-0.171,0.044-0.261,0.071c-0.041,0.013-0.088,0.025-0.131,0.042
		c-0.122,0.041-0.244,0.086-0.367,0.142c-0.016,0.007-0.031,0.011-0.046,0.02c-0.127,0.055-0.252,0.119-0.378,0.19
		c-0.045,0.025-0.091,0.051-0.139,0.078c-0.088,0.054-0.177,0.108-0.27,0.169c-0.05,0.031-0.102,0.068-0.154,0.103
		c-0.09,0.063-0.181,0.131-0.275,0.201c-0.046,0.039-0.092,0.072-0.141,0.113c-0.126,0.1-0.256,0.21-0.383,0.326
		c-0.017,0.016-0.037,0.035-0.058,0.052c-0.125,0.12-0.255,0.245-0.386,0.377c-0.049,0.053-0.098,0.106-0.146,0.159
		c-0.091,0.1-0.187,0.201-0.28,0.31c-0.054,0.06-0.107,0.123-0.161,0.188c-0.093,0.111-0.187,0.227-0.279,0.348
		c-0.051,0.062-0.101,0.123-0.148,0.189c-0.13,0.171-0.261,0.35-0.392,0.538c-0.011,0.015-0.02,0.027-0.03,0.045
		c-0.163,0.23-0.317,0.467-0.465,0.702c-0.046,0.068-0.084,0.136-0.124,0.205c-0.108,0.171-0.213,0.34-0.312,0.513
		c-0.011,0.018-0.021,0.034-0.031,0.05c0.002,0,0.004-0.003,0.004-0.003c-1.819,3.142-2.882,6.629-4.442,10.209
		c-0.326,0.756-0.785,1.338-1.318,1.709c-0.023,0.018-0.049,0.034-0.074,0.051c-0.074,0.049-0.151,0.094-0.229,0.133
		c-0.028,0.016-0.055,0.031-0.081,0.044c-0.1,0.046-0.201,0.09-0.304,0.123c-0.02,0.007-0.044,0.012-0.062,0.016
		c-0.088,0.025-0.174,0.045-0.261,0.061c-0.032,0.005-0.063,0.011-0.096,0.014c-0.102,0.013-0.207,0.022-0.315,0.021
		c-0.005,0-0.011,0-0.018,0c-0.106-0.003-0.214-0.016-0.322-0.033c-0.031-0.005-0.064-0.013-0.096-0.02
		c-0.092-0.018-0.184-0.043-0.275-0.075c-0.023-0.006-0.046-0.012-0.066-0.02c-0.113-0.04-0.221-0.087-0.331-0.146
		c-0.027-0.015-0.056-0.033-0.086-0.049c-0.087-0.048-0.176-0.103-0.266-0.166c-0.026-0.018-0.054-0.038-0.084-0.057
		c-0.108-0.082-0.218-0.17-0.324-0.27c-0.021-0.018-0.042-0.04-0.064-0.061c-0.087-0.084-0.178-0.178-0.268-0.277
		c-0.026-0.031-0.057-0.063-0.083-0.098c-0.108-0.126-0.214-0.258-0.316-0.408c-1.194-1.69-2.274-3.422-3.359-5.082
		c0.001,0.002,0.004,0.006,0.004,0.006c-0.035-0.054-0.07-0.107-0.108-0.163c-0.165-0.255-0.332-0.507-0.501-0.757
		c-0.071-0.108-0.143-0.212-0.215-0.318c-0.141-0.209-0.284-0.415-0.426-0.62c-0.077-0.109-0.154-0.22-0.232-0.327
		c-0.146-0.207-0.294-0.41-0.443-0.612c-0.069-0.096-0.141-0.195-0.213-0.287c-0.21-0.283-0.423-0.559-0.642-0.829
		c-0.007-0.008-0.016-0.018-0.023-0.027c-0.224-0.277-0.451-0.546-0.684-0.809c-0.069-0.08-0.14-0.154-0.21-0.232
		c-0.168-0.183-0.337-0.365-0.509-0.54c-0.084-0.086-0.17-0.172-0.254-0.257c-0.175-0.169-0.349-0.334-0.527-0.494
		c-0.082-0.073-0.161-0.148-0.243-0.22c-0.256-0.221-0.515-0.437-0.783-0.639c-0.004-0.003-0.007-0.007-0.012-0.01l-0.005-0.004
		c-0.214-0.164-0.429-0.311-0.648-0.451c-0.033-0.018-0.064-0.04-0.097-0.062c-0.208-0.13-0.416-0.248-0.625-0.359
		c-0.039-0.023-0.081-0.042-0.121-0.065c-0.208-0.104-0.414-0.202-0.623-0.29c-0.035-0.016-0.068-0.026-0.104-0.041
		c-0.216-0.088-0.432-0.168-0.644-0.236c-0.009-0.001-0.017-0.004-0.026-0.005c-0.211-0.067-0.422-0.118-0.629-0.164
		c-0.027-0.009-0.055-0.016-0.081-0.019c-0.206-0.043-0.406-0.074-0.606-0.1c-0.033-0.003-0.067-0.007-0.102-0.01
		c-0.196-0.018-0.39-0.031-0.579-0.032c-0.031,0-0.058,0-0.087,0c-0.197,0.001-0.391,0.01-0.578,0.03
		c-0.007,0.002-0.011,0.002-0.011,0.002c-0.198,0.022-0.382,0.057-0.561,0.098c-0.012,0.003-0.026,0.003-0.039,0.007
		c-0.177,0.041-0.345,0.096-0.507,0.158c-0.021,0.007-0.043,0.014-0.062,0.023c-0.162,0.063-0.315,0.135-0.46,0.216
		c-0.018,0.009-0.032,0.019-0.049,0.03c-0.151,0.086-0.292,0.18-0.423,0.284c-0.005,0.003-0.006,0.004-0.006,0.004
		c-0.14,0.111-0.267,0.231-0.385,0.361c0,0-0.003,0.003-0.007,0.007c-0.112,0.126-0.213,0.262-0.305,0.406
		c-0.011,0.013-0.021,0.028-0.029,0.042c-0.089,0.142-0.167,0.292-0.233,0.452c-0.008,0.017-0.016,0.035-0.021,0.054
		c-0.066,0.164-0.124,0.334-0.166,0.515l-0.002,0.005v0.002c-0.098,0.424-0.134,0.892-0.087,1.411
		c1.039,11.768,0.701,22.563-0.461,33.668c-0.596,5.73,6.577,7.447,9.661,1.799L232.675,61.038z"/>
	<path fill="#444B52" d="M78.666,63.633c3.327,0.062,6.525-1.137,9.192-3.263c0.046,0.133,0.096,0.262,0.145,0.394
		c1.896,5.011,13.982,5.732,11.62-0.618c-3.315-8.92-4.636-25.139-3.939-35.848c0.045-0.661-0.012-1.243-0.147-1.747l0.004,0.001
		c-0.004-0.009-0.008-0.016-0.009-0.026c-0.02-0.068-0.042-0.133-0.063-0.201c-0.018-0.052-0.036-0.104-0.056-0.155
		c-0.023-0.063-0.049-0.127-0.076-0.186c-0.021-0.048-0.044-0.095-0.068-0.145c-0.028-0.058-0.058-0.115-0.09-0.17
		c-0.025-0.045-0.05-0.088-0.079-0.131c-0.035-0.052-0.068-0.108-0.102-0.159c-0.031-0.038-0.059-0.077-0.091-0.116
		c-0.036-0.049-0.074-0.099-0.116-0.145c-0.031-0.035-0.064-0.068-0.097-0.101c-0.043-0.047-0.086-0.094-0.13-0.135
		c-0.023-0.023-0.049-0.041-0.074-0.06c-0.1-0.089-0.203-0.17-0.311-0.243c-0.038-0.027-0.074-0.052-0.113-0.08
		c-0.051-0.032-0.104-0.059-0.155-0.089c-0.044-0.023-0.087-0.048-0.129-0.071c-0.052-0.025-0.107-0.051-0.16-0.075
		c-0.048-0.019-0.092-0.043-0.14-0.061c-0.056-0.022-0.109-0.042-0.165-0.062c-0.049-0.016-0.101-0.034-0.151-0.051
		c-0.054-0.019-0.111-0.032-0.167-0.048c-0.054-0.014-0.107-0.028-0.162-0.042c-0.057-0.011-0.113-0.024-0.169-0.036
		c-0.057-0.01-0.115-0.019-0.176-0.028c-0.053-0.009-0.107-0.018-0.163-0.024c-0.071-0.009-0.139-0.012-0.207-0.018
		c-0.076-0.007-0.15-0.012-0.227-0.017c-0.086-0.003-0.172-0.004-0.258-0.004c-0.054,0-0.104,0.003-0.155,0.004
		c-0.071,0.002-0.139,0.004-0.207,0.009c-0.056,0.004-0.112,0.011-0.164,0.016c-0.07,0.004-0.136,0.012-0.202,0.02
		c-0.055,0.007-0.116,0.014-0.171,0.024c-0.067,0.011-0.132,0.022-0.201,0.032C90.485,19.988,90.43,20,90.373,20.01
		c-0.068,0.017-0.137,0.033-0.206,0.049c-0.054,0.011-0.106,0.024-0.16,0.04c-0.072,0.017-0.143,0.039-0.214,0.06
		c-0.05,0.015-0.102,0.029-0.152,0.045c-0.081,0.025-0.16,0.056-0.243,0.084c-0.038,0.014-0.077,0.028-0.115,0.043
		c-0.117,0.045-0.236,0.092-0.351,0.143c-0.033,0.013-0.065,0.03-0.1,0.047c-0.082,0.038-0.167,0.076-0.25,0.117
		c-0.044,0.025-0.088,0.048-0.13,0.072c-0.072,0.038-0.142,0.074-0.21,0.115c-0.046,0.026-0.091,0.053-0.138,0.081
		c-0.064,0.041-0.129,0.08-0.194,0.122c-0.043,0.029-0.09,0.06-0.133,0.091c-0.063,0.042-0.124,0.085-0.186,0.13
		c-0.044,0.032-0.084,0.064-0.129,0.098c-0.06,0.048-0.119,0.096-0.181,0.147c-0.037,0.031-0.077,0.064-0.116,0.098
		c-0.064,0.054-0.126,0.113-0.187,0.171c-0.031,0.032-0.065,0.059-0.093,0.09c-0.091,0.089-0.179,0.183-0.265,0.276
		c-1.909-1.113-4.309-1.913-7.341-2.292c-0.336-0.043-0.67-0.071-1.002-0.097c-0.078-0.007-0.154-0.014-0.232-0.019
		c-0.326-0.02-0.65-0.034-0.971-0.037c-0.032-0.003-0.063,0-0.095,0c-0.297-0.004-0.591,0.002-0.883,0.013
		c-0.075,0.002-0.148,0.004-0.22,0.009c-0.31,0.014-0.619,0.035-0.925,0.068c-0.052,0.004-0.103,0.01-0.154,0.016
		c-0.267,0.031-0.531,0.066-0.798,0.106c-0.068,0.01-0.137,0.02-0.205,0.031c-0.295,0.051-0.588,0.107-0.875,0.169
		c-0.065,0.015-0.13,0.03-0.192,0.045c-0.246,0.058-0.492,0.119-0.734,0.187c-0.062,0.017-0.126,0.032-0.191,0.052
		c-0.276,0.08-0.55,0.167-0.82,0.261c-0.073,0.025-0.145,0.052-0.217,0.078c-0.229,0.082-0.454,0.171-0.679,0.261
		c-0.059,0.026-0.114,0.047-0.172,0.071c-0.26,0.108-0.514,0.225-0.769,0.349c-0.074,0.035-0.152,0.075-0.229,0.114
		c-0.216,0.109-0.431,0.222-0.641,0.339c-0.048,0.028-0.094,0.051-0.143,0.076c-0.238,0.137-0.477,0.283-0.708,0.433
		c-0.08,0.047-0.159,0.099-0.236,0.153c-0.209,0.138-0.417,0.278-0.621,0.425c-0.061,0.043-0.124,0.092-0.185,0.137
		c-0.19,0.143-0.38,0.289-0.567,0.438c-0.078,0.063-0.156,0.128-0.232,0.192c-0.208,0.173-0.414,0.35-0.615,0.532
		c-0.059,0.055-0.115,0.112-0.173,0.165c-0.158,0.149-0.315,0.299-0.467,0.452c-0.075,0.076-0.149,0.15-0.224,0.226
		c-0.186,0.195-0.369,0.391-0.55,0.592c-0.064,0.076-0.129,0.153-0.19,0.228c-0.133,0.153-0.265,0.311-0.396,0.47
		c-0.068,0.085-0.137,0.172-0.205,0.259c-0.164,0.212-0.329,0.428-0.488,0.651c-0.065,0.088-0.129,0.181-0.19,0.273
		c-0.115,0.165-0.229,0.336-0.339,0.506c-0.063,0.091-0.124,0.184-0.183,0.275c-0.131,0.209-0.257,0.419-0.384,0.63
		c0.005-0.005,0.008-0.009,0.013-0.016c-2.039,3.474-3.289,7.747-3.53,12.529C56.967,55.199,68.49,63.447,78.666,63.633
		L78.666,63.633z M81.378,51.678l-0.005,0.004c-0.151,0.117-0.308,0.225-0.471,0.325c-0.014,0.01-0.027,0.018-0.038,0.024
		c-0.166,0.102-0.335,0.196-0.508,0.28c-0.009,0.006-0.018,0.009-0.024,0.012c-0.16,0.077-0.322,0.145-0.487,0.207
		c-0.032,0.012-0.065,0.023-0.097,0.035c-0.175,0.062-0.354,0.116-0.539,0.165c-0.013,0.004-0.026,0.004-0.035,0.007
		c-0.17,0.04-0.345,0.072-0.518,0.097c-0.048,0.007-0.096,0.013-0.144,0.021c-0.19,0.022-0.384,0.041-0.581,0.046
		c-0.159,0.003-0.316,0.003-0.476-0.002c-0.054,0-0.108-0.007-0.163-0.011c-0.105-0.005-0.212-0.01-0.318-0.019
		c-0.066-0.006-0.128-0.015-0.193-0.024c-0.095-0.012-0.195-0.021-0.289-0.036c-0.07-0.01-0.138-0.023-0.205-0.036
		c-0.092-0.016-0.183-0.032-0.276-0.051c-0.07-0.014-0.143-0.032-0.213-0.048c-0.088-0.021-0.178-0.043-0.268-0.066
		c-0.075-0.019-0.144-0.041-0.217-0.061c-0.088-0.026-0.173-0.055-0.26-0.081c-0.073-0.022-0.147-0.049-0.219-0.075
		c-0.085-0.03-0.171-0.061-0.255-0.094c-0.074-0.027-0.146-0.057-0.217-0.087c-0.085-0.035-0.169-0.072-0.254-0.109
		c-0.072-0.034-0.143-0.064-0.215-0.097c-0.082-0.04-0.165-0.081-0.246-0.123c-0.073-0.037-0.142-0.073-0.211-0.109
		c-0.083-0.044-0.165-0.093-0.245-0.139c-0.07-0.038-0.139-0.079-0.207-0.119c-0.08-0.05-0.162-0.103-0.242-0.154
		c-0.066-0.044-0.133-0.086-0.199-0.13c-0.081-0.054-0.159-0.112-0.24-0.171c-0.064-0.044-0.127-0.089-0.191-0.137
		c-0.078-0.062-0.158-0.126-0.237-0.188c-0.06-0.046-0.12-0.094-0.178-0.143c-0.083-0.068-0.164-0.141-0.244-0.215
		c-0.055-0.045-0.108-0.094-0.158-0.139c-0.091-0.085-0.179-0.172-0.265-0.257c-0.042-0.041-0.082-0.08-0.125-0.123
		c-0.124-0.127-0.244-0.257-0.363-0.392c-1.768-2.004-2.914-4.804-2.754-8.185c0.336-7.147,4.574-11.891,10.444-11.361
		c7.676,0.697,9.096,15.425,4.049,20.93h0.001C82.001,51.154,81.699,51.431,81.378,51.678L81.378,51.678z"/>
	<path fill="#444B52" d="M33.279,60.143c0.932-2.584,0.348-5.478,0.932-8.104c0.699-3.133,3.42-2.253,6.122-0.411
		c4.053,2.761,6.733,7.076,9.89,11.298c3.354,4.479,8.964,1.315,8.258-3.129c-1.346-8.493-5.691-15.109-12.276-19.014
		c-0.73-0.433-0.578-0.811,0.176-1.395c4.42-3.388,8.844-6.833,10.411-16.655c0.092-0.575,0.094-1.075,0.027-1.51l0.004,0.004
		c-0.002-0.015-0.005-0.03-0.008-0.041c-0.01-0.064-0.023-0.122-0.037-0.179c-0.008-0.048-0.018-0.092-0.03-0.134
		c-0.017-0.057-0.035-0.112-0.05-0.167c-0.013-0.041-0.029-0.08-0.046-0.119c-0.019-0.052-0.039-0.106-0.063-0.155
		c-0.016-0.036-0.033-0.071-0.05-0.105c-0.027-0.05-0.05-0.096-0.079-0.143c-0.019-0.032-0.038-0.059-0.06-0.089
		c-0.031-0.046-0.058-0.094-0.093-0.134c-0.014-0.02-0.029-0.035-0.044-0.054c-0.079-0.093-0.167-0.183-0.262-0.264
		c-0.013-0.011-0.029-0.028-0.046-0.041c-0.041-0.034-0.086-0.065-0.128-0.097c-0.028-0.017-0.054-0.037-0.084-0.054
		c-0.042-0.03-0.087-0.053-0.13-0.079c-0.035-0.016-0.065-0.035-0.096-0.049c-0.046-0.025-0.092-0.045-0.141-0.066
		c-0.033-0.013-0.07-0.028-0.102-0.04c-0.051-0.018-0.098-0.035-0.147-0.049c-0.038-0.014-0.075-0.024-0.111-0.034
		c-0.05-0.016-0.101-0.028-0.152-0.041c-0.039-0.008-0.078-0.015-0.118-0.022c-0.051-0.011-0.104-0.018-0.16-0.025
		c-0.035-0.005-0.078-0.009-0.116-0.014c-0.055-0.006-0.11-0.014-0.168-0.016c-0.022-0.002-0.044-0.002-0.066-0.002
		c-0.125-0.006-0.251-0.006-0.38,0.002c-0.047,0.001-0.088,0.001-0.133,0.004c-0.056,0.003-0.111,0.012-0.165,0.017
		c-0.048,0.005-0.098,0.011-0.148,0.019c-0.053,0.004-0.108,0.014-0.162,0.024c-0.052,0.01-0.102,0.019-0.154,0.029
		c-0.052,0.008-0.11,0.022-0.161,0.032c-0.052,0.012-0.106,0.026-0.159,0.038c-0.054,0.013-0.109,0.028-0.161,0.043
		c-0.054,0.016-0.108,0.032-0.165,0.049c-0.051,0.015-0.104,0.033-0.155,0.051c-0.057,0.019-0.117,0.04-0.175,0.062
		c-0.048,0.019-0.097,0.035-0.146,0.054c-0.069,0.028-0.138,0.057-0.207,0.088c-0.035,0.017-0.076,0.031-0.113,0.047
		c-0.103,0.049-0.205,0.097-0.31,0.15c-0.039,0.021-0.076,0.042-0.114,0.062c-0.069,0.037-0.135,0.072-0.201,0.111
		c-0.042,0.023-0.083,0.051-0.127,0.075c-0.061,0.036-0.12,0.073-0.18,0.113c-0.043,0.025-0.087,0.055-0.129,0.085
		c-0.059,0.037-0.118,0.079-0.173,0.117c-0.041,0.031-0.086,0.063-0.129,0.093c-0.055,0.042-0.111,0.087-0.168,0.128
		c-0.041,0.034-0.081,0.065-0.121,0.097c-0.054,0.048-0.112,0.094-0.166,0.143c-0.038,0.034-0.075,0.066-0.11,0.097
		c-0.06,0.057-0.119,0.112-0.178,0.172c-0.027,0.027-0.059,0.054-0.087,0.085c-0.088,0.088-0.17,0.176-0.253,0.271
		c-3.646,4.145-7.14,7.913-12.342,10.416c-0.112,0.053-0.215,0.105-0.32,0.154c-0.02,0.009-0.036,0.018-0.055,0.026
		c-0.108,0.053-0.212,0.101-0.312,0.145c-0.877,0.372-1.472,0.34-1.685-1.554c-0.255-2.294-0.04-4.664-0.639-6.891
		c-0.023-0.091-0.055-0.174-0.085-0.263c0.004,0.003,0.007,0.005,0.007,0.005c-0.008-0.031-0.022-0.061-0.033-0.091
		c-0.025-0.069-0.05-0.134-0.077-0.2c-0.029-0.07-0.059-0.14-0.092-0.209c-0.03-0.062-0.06-0.123-0.091-0.183
		c-0.037-0.067-0.075-0.131-0.114-0.196c-0.035-0.059-0.069-0.116-0.106-0.171c-0.042-0.062-0.086-0.122-0.132-0.185
		c-0.039-0.054-0.076-0.105-0.118-0.156c-0.049-0.062-0.102-0.118-0.154-0.176c-0.04-0.045-0.081-0.094-0.124-0.139
		c-0.059-0.061-0.125-0.118-0.188-0.176c-0.041-0.036-0.077-0.075-0.119-0.11c-0.103-0.09-0.212-0.175-0.321-0.257
		c-0.043-0.031-0.089-0.057-0.131-0.084c-0.074-0.053-0.147-0.105-0.222-0.15c-0.054-0.031-0.111-0.061-0.167-0.091
		c-0.068-0.038-0.136-0.078-0.205-0.112c-0.061-0.032-0.119-0.059-0.182-0.089c-0.068-0.031-0.136-0.063-0.205-0.092
		c-0.064-0.025-0.129-0.049-0.195-0.076c-0.07-0.025-0.137-0.051-0.208-0.074c-0.068-0.023-0.135-0.044-0.202-0.065
		c-0.071-0.02-0.139-0.039-0.213-0.058c-0.068-0.017-0.138-0.035-0.208-0.052c-0.072-0.017-0.14-0.03-0.21-0.042
		c-0.073-0.015-0.145-0.029-0.216-0.039c-0.07-0.012-0.142-0.021-0.212-0.03c-0.074-0.007-0.147-0.017-0.223-0.024
		c-0.068-0.007-0.136-0.009-0.205-0.016c-0.078-0.003-0.155-0.007-0.231-0.007c-0.065-0.003-0.132,0-0.196,0
		c-0.08,0-0.161,0-0.24,0.002c-0.056,0.003-0.11,0.008-0.16,0.012c-0.21,0.017-0.417,0.038-0.623,0.073
		c-0.017,0.004-0.038,0.008-0.055,0.011c-0.09,0.013-0.179,0.036-0.267,0.054c-0.049,0.013-0.103,0.022-0.154,0.035
		c-0.084,0.019-0.164,0.046-0.248,0.071c-0.054,0.015-0.108,0.03-0.164,0.049c-0.08,0.026-0.16,0.055-0.24,0.086
		c-0.052,0.02-0.108,0.04-0.16,0.063c-0.078,0.03-0.154,0.067-0.232,0.101c-0.05,0.026-0.103,0.051-0.155,0.075
		c-0.077,0.04-0.15,0.08-0.221,0.124c-0.052,0.026-0.099,0.055-0.147,0.086c-0.073,0.045-0.145,0.088-0.215,0.139
		c-0.047,0.031-0.09,0.062-0.135,0.095c-0.067,0.052-0.137,0.105-0.205,0.16c-0.041,0.034-0.082,0.071-0.122,0.106
		c-0.067,0.058-0.132,0.119-0.197,0.181c-0.035,0.036-0.068,0.073-0.103,0.107c-0.065,0.069-0.129,0.137-0.19,0.209
		c-0.026,0.032-0.051,0.066-0.076,0.097c-0.226,0.283-0.423,0.599-0.585,0.946c-0.009,0.02-0.02,0.042-0.029,0.062
		c-0.044,0.093-0.078,0.193-0.115,0.29c-0.017,0.043-0.036,0.084-0.049,0.127l0.004-0.003c-0.121,0.348-0.21,0.722-0.26,1.126
		c-1.396,11.486-0.929,22.14-0.056,32.674C23.598,63.49,31.517,65.006,33.279,60.143L33.279,60.143z"/>
	<path fill="#444B52" d="M137.701,24.527c0.076-0.79,0.017-1.475-0.144-2.061c0,0,0.003,0.003,0.005,0.003
		c-0.005-0.018-0.013-0.031-0.018-0.052c-0.024-0.079-0.049-0.156-0.078-0.23c-0.021-0.064-0.043-0.126-0.068-0.183
		c-0.03-0.073-0.06-0.146-0.094-0.212c-0.028-0.058-0.056-0.113-0.086-0.167c-0.037-0.064-0.071-0.131-0.112-0.194
		c-0.032-0.051-0.067-0.098-0.1-0.148c-0.044-0.056-0.085-0.119-0.129-0.176c-0.031-0.035-0.064-0.067-0.095-0.102
		c-0.094-0.109-0.194-0.211-0.303-0.305c-0.043-0.037-0.083-0.077-0.128-0.111c-0.054-0.042-0.111-0.085-0.17-0.123
		c-0.048-0.035-0.095-0.065-0.143-0.099c-0.06-0.035-0.119-0.072-0.18-0.105c-0.05-0.027-0.103-0.055-0.154-0.08
		c-0.064-0.031-0.128-0.062-0.192-0.087c-0.053-0.025-0.109-0.045-0.163-0.066c-0.067-0.026-0.132-0.051-0.197-0.07
		c-0.057-0.021-0.119-0.035-0.18-0.052c-0.122-0.033-0.246-0.06-0.372-0.084c-0.064-0.009-0.127-0.025-0.189-0.035
		c-0.071-0.01-0.144-0.014-0.216-0.021c-0.063-0.007-0.126-0.013-0.191-0.016c-0.071-0.004-0.144-0.005-0.217-0.008
		c-0.064-0.002-0.129-0.002-0.196-0.002c-0.073,0.002-0.149,0.005-0.219,0.01c-0.068,0.003-0.134,0.008-0.199,0.015
		c-0.075,0.007-0.149,0.012-0.224,0.02c-0.067,0.008-0.135,0.021-0.201,0.033c-0.074,0.011-0.148,0.022-0.223,0.036
		c-0.075,0.015-0.151,0.036-0.226,0.052c-0.126,0.03-0.253,0.066-0.377,0.102c-0.069,0.022-0.137,0.041-0.203,0.063
		c-0.073,0.028-0.146,0.054-0.219,0.08c-0.066,0.026-0.132,0.051-0.196,0.076c-0.073,0.033-0.146,0.065-0.215,0.098
		c-0.065,0.027-0.13,0.059-0.193,0.088c-0.07,0.037-0.14,0.073-0.21,0.11c-0.063,0.033-0.126,0.07-0.188,0.105
		c-0.068,0.039-0.134,0.078-0.203,0.121c-0.063,0.037-0.123,0.082-0.187,0.124c-0.1,0.068-0.203,0.142-0.302,0.217
		c-0.072,0.056-0.148,0.111-0.219,0.172c-0.06,0.048-0.116,0.1-0.172,0.153c-0.054,0.051-0.114,0.1-0.168,0.152
		c-0.055,0.056-0.11,0.113-0.164,0.168c-0.053,0.054-0.104,0.11-0.155,0.166c-0.051,0.06-0.102,0.12-0.154,0.181
		c-0.047,0.059-0.094,0.119-0.141,0.179c-0.045,0.064-0.095,0.127-0.141,0.19c-0.043,0.067-0.088,0.135-0.13,0.203
		c-0.04,0.065-0.084,0.128-0.122,0.192c-0.051,0.094-0.102,0.188-0.148,0.282c-0.049,0.094-0.093,0.19-0.137,0.288
		c-0.034,0.08-0.072,0.159-0.102,0.239l0.003-0.004c-0.076,0.193-0.144,0.392-0.196,0.597c-1.794,6.781-1.77,11.395-1.938,12.32
		c-0.255,1.409-0.919,1.83-1.688,1.117c-0.022-0.021-0.043-0.037-0.066-0.061c-0.05-0.052-0.102-0.108-0.155-0.17
		c-1.574-1.867-3.058-3.812-4.533-5.678c-2.713-3.438-5.393-6.621-8.53-8.585c-0.165-0.102-0.328-0.201-0.486-0.294
		c-0.052-0.029-0.1-0.057-0.148-0.084c-0.112-0.063-0.221-0.124-0.33-0.183c-0.057-0.029-0.112-0.057-0.166-0.087
		c-0.104-0.053-0.205-0.105-0.306-0.154c-0.051-0.025-0.103-0.051-0.158-0.076c-0.106-0.051-0.212-0.097-0.314-0.142
		c-0.043-0.018-0.087-0.041-0.127-0.057c-0.293-0.125-0.572-0.227-0.845-0.315c-0.038-0.013-0.076-0.025-0.114-0.036
		c-0.097-0.029-0.191-0.057-0.284-0.082c-0.045-0.012-0.089-0.022-0.133-0.036c-0.087-0.019-0.174-0.039-0.258-0.058
		c-0.043-0.007-0.085-0.018-0.127-0.027c-0.089-0.017-0.177-0.03-0.264-0.043c-0.033-0.004-0.068-0.009-0.102-0.015
		c-0.121-0.015-0.239-0.028-0.352-0.035h-0.003c-0.112-0.008-0.22-0.013-0.33-0.013c-0.034,0-0.069,0.002-0.101,0.002
		c-0.073,0.003-0.147,0.003-0.215,0.008c-0.04,0.003-0.079,0.007-0.118,0.01c-0.065,0.006-0.13,0.014-0.193,0.023
		c-0.037,0.005-0.075,0.012-0.111,0.017c-0.063,0.013-0.127,0.024-0.189,0.039c-0.031,0.006-0.065,0.013-0.097,0.02
		c-0.086,0.023-0.17,0.049-0.252,0.076c-0.02,0.007-0.04,0.014-0.062,0.021c-0.068,0.023-0.134,0.051-0.201,0.08
		c-0.032,0.013-0.063,0.029-0.098,0.045c-0.048,0.024-0.095,0.045-0.139,0.07c-0.033,0.018-0.068,0.037-0.101,0.056
		c-0.043,0.028-0.084,0.049-0.123,0.074c-0.035,0.025-0.066,0.047-0.097,0.068c-0.039,0.029-0.077,0.057-0.112,0.085
		c-0.031,0.026-0.062,0.047-0.092,0.073c-0.042,0.034-0.08,0.071-0.12,0.107c-0.046,0.045-0.091,0.088-0.134,0.136
		c-0.032,0.034-0.063,0.065-0.093,0.1c-0.03,0.035-0.056,0.068-0.083,0.104c-0.025,0.029-0.05,0.063-0.073,0.093
		c-0.029,0.037-0.054,0.076-0.079,0.114c-0.023,0.032-0.042,0.065-0.062,0.098c-0.027,0.039-0.051,0.08-0.073,0.121
		c-0.02,0.033-0.037,0.068-0.053,0.1c-0.026,0.045-0.048,0.087-0.068,0.131c-0.013,0.03-0.026,0.059-0.038,0.087
		c-0.04,0.094-0.08,0.188-0.114,0.286c-0.008,0.031-0.022,0.064-0.034,0.095c-0.014,0.052-0.032,0.102-0.043,0.152
		c-0.008,0.024-0.018,0.05-0.023,0.074l0.001-0.002c-0.14,0.517-0.192,1.09-0.159,1.696c0.641,11.34-0.026,22.678-0.08,33.798
		c-0.031,6.406,6.318,5.626,9.276,2.055c2.939-3.553,2.671-9.081,3.086-14.222c0.155-1.946,1.278-1.459,2.034-0.504
		c4.284,5.394,8.081,11.077,13.569,14.517c3.347,2.097,8.584,1.97,8.266-0.745C137.149,48.989,136.506,36.821,137.701,24.527
		L137.701,24.527z"/>
	<path fill="#444B52" d="M154.669,96.633c-0.753,0.899-1.545,1.667-2.356,2.325c-0.141,0.113-0.279,0.223-0.421,0.328
		c-0.03,0.025-0.062,0.048-0.096,0.071c-0.107,0.084-0.219,0.159-0.328,0.236c-0.041,0.031-0.086,0.059-0.128,0.09
		c-0.099,0.067-0.201,0.137-0.302,0.198c-0.047,0.035-0.097,0.062-0.147,0.094c-0.092,0.058-0.187,0.118-0.283,0.175
		c-0.051,0.029-0.106,0.06-0.156,0.089c-0.092,0.054-0.188,0.108-0.28,0.157c-0.054,0.032-0.105,0.058-0.158,0.085
		c-0.092,0.049-0.188,0.1-0.281,0.147c-0.054,0.025-0.105,0.052-0.159,0.075c-0.095,0.048-0.187,0.093-0.283,0.132
		c-0.05,0.026-0.105,0.049-0.156,0.069c-0.095,0.045-0.19,0.085-0.288,0.125c-0.052,0.019-0.1,0.04-0.15,0.058
		c-0.098,0.042-0.199,0.079-0.299,0.115c-0.047,0.016-0.092,0.032-0.14,0.048c-0.108,0.035-0.213,0.073-0.319,0.105
		c-0.04,0.013-0.078,0.028-0.12,0.039c-0.116,0.037-0.233,0.067-0.349,0.101c-0.03,0.011-0.06,0.018-0.09,0.023
		c-0.138,0.04-0.278,0.073-0.418,0.106c-0.006,0-0.013,0.003-0.017,0.003c-0.6,0.137-1.196,0.221-1.784,0.254
		c-0.015,0.001-0.026,0.001-0.042,0.001c-0.132,0.011-0.264,0.018-0.393,0.021c-0.021,0-0.042,0-0.065,0
		c-0.121,0.002-0.245,0.002-0.365,0c-0.026,0-0.049,0-0.074-0.003c-0.118-0.004-0.238-0.007-0.357-0.018
		c-0.026,0-0.049-0.001-0.075-0.001c-0.118-0.01-0.236-0.017-0.353-0.029c-0.023-0.005-0.048-0.005-0.073-0.006
		c-0.118-0.013-0.236-0.033-0.352-0.045c-0.023-0.004-0.044-0.007-0.068-0.008c-0.117-0.019-0.237-0.04-0.355-0.06
		c-0.02-0.003-0.039-0.006-0.059-0.01c-0.121-0.022-0.246-0.047-0.368-0.075c-0.012-0.004-0.024-0.006-0.035-0.009
		c-0.136-0.027-0.266-0.062-0.395-0.097c-0.003,0-0.005,0-0.005,0c-0.951-0.261-1.848-0.647-2.669-1.155l-0.006-0.003
		c-0.111-0.07-0.223-0.145-0.333-0.219c-2.527-1.705-4.25-4.572-4.371-8.151c-0.333-10.031,9.173-14.277,18.034-9.051
		c5.372,3.168,9.071-2.196,6.519-7.784c-0.167-0.367-0.367-0.713-0.601-1.047l-0.004-0.002c-0.136-0.197-0.283-0.382-0.441-0.561
		c-0.018-0.021-0.034-0.043-0.051-0.062c-0.156-0.173-0.318-0.342-0.493-0.506c-0.02-0.022-0.048-0.044-0.067-0.065
		c-0.178-0.163-0.362-0.317-0.554-0.47c-0.023-0.019-0.051-0.037-0.074-0.056c-0.198-0.151-0.405-0.302-0.621-0.444
		c-0.015-0.01-0.032-0.02-0.047-0.029c-0.458-0.296-0.947-0.568-1.476-0.816c-0.021-0.01-0.038-0.021-0.062-0.029
		c-0.252-0.117-0.513-0.231-0.78-0.339c-0.033-0.012-0.069-0.026-0.103-0.038c-0.264-0.106-0.536-0.205-0.813-0.299
		c-0.04-0.012-0.078-0.026-0.117-0.038c-0.279-0.093-0.568-0.183-0.863-0.266c-0.033-0.009-0.065-0.018-0.099-0.028
		c-0.306-0.086-0.617-0.168-0.937-0.242c-0.01-0.002-0.02-0.005-0.03-0.006c-0.325-0.076-0.659-0.148-0.999-0.212
		c-0.014-0.004-0.028-0.009-0.044-0.01c-0.327-0.063-0.665-0.12-1.003-0.173c-0.04-0.006-0.08-0.016-0.121-0.02
		c-0.329-0.049-0.663-0.095-1.005-0.136c-0.05-0.006-0.1-0.012-0.152-0.018c-0.336-0.04-0.676-0.075-1.024-0.107
		c-0.05-0.004-0.101-0.007-0.154-0.011c-0.354-0.03-0.706-0.057-1.067-0.076c-0.038-0.002-0.076-0.005-0.114-0.005
		c-0.377-0.019-0.757-0.037-1.141-0.048c-0.435-0.012-0.867-0.012-1.292-0.002c-0.148,0.004-0.293,0.015-0.442,0.021
		c-0.272,0.013-0.547,0.023-0.817,0.044c-0.169,0.012-0.335,0.034-0.501,0.051c-0.243,0.023-0.488,0.047-0.727,0.077
		c-0.173,0.023-0.34,0.054-0.512,0.08c-0.228,0.037-0.458,0.069-0.681,0.113c-0.172,0.032-0.339,0.07-0.507,0.108
		c-0.219,0.044-0.438,0.09-0.655,0.146c-0.165,0.038-0.327,0.086-0.489,0.129c-0.215,0.059-0.426,0.115-0.635,0.179
		c-0.161,0.05-0.315,0.103-0.474,0.155c-0.208,0.067-0.415,0.138-0.62,0.213c-0.151,0.057-0.3,0.116-0.451,0.174
		c-0.202,0.081-0.404,0.162-0.603,0.246c-0.144,0.063-0.287,0.131-0.43,0.197c-0.199,0.09-0.395,0.181-0.588,0.279
		c-0.138,0.068-0.273,0.141-0.41,0.214c-0.193,0.1-0.384,0.204-0.572,0.31c-0.131,0.073-0.258,0.152-0.387,0.228
		c-0.189,0.112-0.374,0.227-0.557,0.346c-0.121,0.079-0.243,0.16-0.362,0.241c-0.184,0.124-0.365,0.251-0.543,0.378
		c-0.114,0.084-0.227,0.169-0.341,0.256c-0.178,0.133-0.351,0.27-0.523,0.409c-0.109,0.087-0.217,0.175-0.321,0.263
		c-0.17,0.146-0.337,0.293-0.502,0.44c-0.103,0.092-0.203,0.183-0.302,0.277c-0.164,0.154-0.322,0.309-0.482,0.468
		c-0.096,0.095-0.189,0.189-0.283,0.287c-0.156,0.163-0.307,0.329-0.456,0.495c-0.056,0.061-0.114,0.119-0.169,0.18
		c0.009-0.005,0.017-0.012,0.025-0.02c-3.555,4.034-5.514,9.375-5.514,14.823c0.004,13.504,7.071,22.983,22.078,24.016
		c8.511,0.585,16.527-3.255,19.15-10.628c2.098-5.906-5.062-11.398-8.28-7.573L154.669,96.633z"/>
	<path fill="#444B52" d="M118.041,72.008h0.002c0,0-0.005-0.005-0.006-0.006c-0.138-0.252-0.298-0.483-0.474-0.699l-0.007-0.006
		c-0.179-0.215-0.373-0.414-0.583-0.592l-0.004-0.002c-1.063-0.906-2.515-1.363-4.019-1.433h-0.001
		c-0.301-0.014-0.604-0.011-0.905,0.006h-0.008c-0.147,0.009-0.291,0.02-0.434,0.035c-0.008,0.002-0.016,0.002-0.022,0.003
		c-0.146,0.016-0.29,0.035-0.436,0.058c-0.008,0-0.015,0-0.02,0.002c-0.136,0.022-0.272,0.047-0.406,0.076
		c-0.016,0.001-0.029,0.004-0.04,0.005c-0.141,0.032-0.279,0.063-0.416,0.098c-0.011,0.003-0.021,0.005-0.03,0.008
		c-0.124,0.031-0.25,0.068-0.374,0.107c-0.019,0.006-0.036,0.012-0.059,0.019c-0.13,0.041-0.259,0.085-0.387,0.132
		c-0.011,0.005-0.021,0.01-0.032,0.011c-0.116,0.045-0.23,0.092-0.342,0.139c-0.024,0.012-0.045,0.021-0.068,0.03
		c-0.122,0.054-0.242,0.111-0.357,0.167c-0.012,0.008-0.021,0.014-0.032,0.018c-0.105,0.054-0.208,0.113-0.31,0.169
		c-0.023,0.014-0.046,0.029-0.07,0.042c-0.111,0.062-0.216,0.13-0.321,0.2c-0.009,0.004-0.017,0.011-0.026,0.017
		c-0.095,0.067-0.185,0.133-0.277,0.203c-0.023,0.016-0.045,0.035-0.068,0.05c-0.095,0.078-0.19,0.155-0.281,0.234
		c-0.005,0.005-0.009,0.01-0.015,0.016c-0.083,0.076-0.163,0.156-0.24,0.234c-0.02,0.021-0.041,0.042-0.061,0.063
		c-0.08,0.086-0.16,0.177-0.233,0.265c-0.002,0.004-0.003,0.005-0.003,0.005c-0.075,0.094-0.14,0.183-0.203,0.277
		c-0.018,0.024-0.032,0.046-0.049,0.073c-0.063,0.095-0.125,0.193-0.177,0.292c0,0-0.002,0.001-0.004,0.002
		c-0.331,0.615-0.503,1.311-0.465,2.078c0.613,11.926,1.117,23.631,1.409,35.751c0.134,5.462,11.55,6.256,11.841-0.644
		c0.498-11.676-0.407-23.27-0.357-34.832C118.675,73.628,118.442,72.742,118.041,72.008L118.041,72.008z"/>
	<path fill="#444B52" d="M50.083,96.529c-0.754,0.893-1.543,1.669-2.358,2.324c-0.139,0.114-0.28,0.223-0.423,0.326
		c-0.029,0.024-0.057,0.045-0.085,0.064c-0.114,0.085-0.226,0.169-0.34,0.247c-0.038,0.027-0.079,0.052-0.118,0.079
		c-0.104,0.072-0.208,0.14-0.31,0.209c-0.046,0.028-0.093,0.056-0.135,0.082c-0.1,0.063-0.198,0.124-0.297,0.182
		c-0.05,0.03-0.098,0.057-0.145,0.087c-0.097,0.054-0.194,0.109-0.291,0.161c-0.051,0.03-0.098,0.054-0.149,0.081
		c-0.098,0.05-0.193,0.1-0.29,0.15c-0.051,0.023-0.1,0.05-0.15,0.074c-0.098,0.046-0.196,0.092-0.294,0.135
		c-0.048,0.023-0.097,0.042-0.147,0.065c-0.098,0.043-0.198,0.086-0.297,0.125c-0.047,0.02-0.095,0.044-0.141,0.058
		c-0.105,0.042-0.206,0.079-0.309,0.118c-0.043,0.013-0.088,0.03-0.13,0.048c-0.109,0.035-0.217,0.071-0.326,0.103
		c-0.037,0.015-0.076,0.027-0.114,0.039c-0.121,0.036-0.238,0.069-0.358,0.102c-0.027,0.006-0.054,0.017-0.081,0.024
		c-0.141,0.036-0.281,0.073-0.422,0.103c-0.006,0-0.011,0-0.014,0.004c-0.602,0.136-1.195,0.218-1.783,0.255
		c-0.017,0-0.033,0-0.049,0.002c-0.128,0.011-0.256,0.014-0.385,0.016c-0.025,0-0.049,0-0.071,0.002c-0.121,0-0.24,0-0.36,0
		c-0.027-0.002-0.055-0.002-0.081-0.002c-0.117-0.002-0.234-0.008-0.349-0.016c-0.027-0.002-0.055-0.002-0.084-0.005
		c-0.115-0.009-0.229-0.015-0.342-0.028c-0.029-0.003-0.055-0.006-0.082-0.008c-0.116-0.011-0.229-0.027-0.343-0.043
		c-0.025-0.001-0.05-0.005-0.075-0.01c-0.118-0.015-0.235-0.037-0.351-0.058c-0.022-0.002-0.04-0.006-0.062-0.01
		c-0.121-0.022-0.243-0.049-0.364-0.075c-0.014-0.005-0.028-0.007-0.04-0.01c-0.131-0.03-0.26-0.059-0.389-0.094
		c-0.003-0.004-0.007-0.004-0.011-0.004c-1.083-0.297-2.097-0.762-3.011-1.377c-2.524-1.706-4.244-4.569-4.364-8.149
		c-0.333-10.031,9.172-14.276,18.032-9.053c5.369,3.166,9.072-2.196,6.519-7.783c-0.166-0.367-0.37-0.715-0.602-1.044h0.001
		c-0.001-0.004-0.004-0.006-0.005-0.008c-0.134-0.193-0.284-0.378-0.438-0.557c-0.019-0.022-0.036-0.043-0.056-0.062
		c-0.151-0.174-0.316-0.343-0.489-0.504c-0.024-0.024-0.048-0.048-0.073-0.069c-0.175-0.162-0.356-0.316-0.548-0.469
		c-0.025-0.019-0.05-0.037-0.077-0.058c-0.199-0.151-0.404-0.299-0.617-0.442c-0.019-0.011-0.038-0.021-0.055-0.031
		c-0.451-0.295-0.94-0.563-1.462-0.811c-0.025-0.012-0.047-0.023-0.072-0.034c-0.249-0.116-0.507-0.229-0.77-0.335
		c-0.039-0.014-0.078-0.03-0.114-0.046c-0.261-0.103-0.529-0.198-0.803-0.292c-0.044-0.014-0.088-0.03-0.132-0.044
		c-0.275-0.091-0.558-0.178-0.846-0.261c-0.041-0.011-0.08-0.021-0.118-0.033c-0.301-0.084-0.605-0.163-0.917-0.237
		c-0.022-0.005-0.041-0.008-0.059-0.011c-0.315-0.073-0.636-0.143-0.961-0.204c-0.022-0.005-0.044-0.011-0.067-0.016
		c-0.322-0.063-0.652-0.118-0.985-0.17c-0.048-0.008-0.095-0.015-0.142-0.024c-0.324-0.048-0.652-0.093-0.985-0.133
		c-0.059-0.008-0.114-0.015-0.174-0.02c-0.33-0.039-0.667-0.074-1.006-0.104c-0.056-0.005-0.114-0.01-0.172-0.014
		c-0.346-0.027-0.696-0.055-1.051-0.074c-0.042-0.002-0.085-0.005-0.127-0.006c-0.376-0.019-0.751-0.036-1.131-0.047h-0.003
		c-0.437-0.011-0.868-0.011-1.292-0.003c-0.139,0.004-0.275,0.014-0.412,0.02c-0.284,0.013-0.569,0.024-0.849,0.045
		c-0.163,0.012-0.32,0.035-0.479,0.05c-0.251,0.024-0.504,0.047-0.75,0.08c-0.167,0.022-0.329,0.051-0.492,0.077
		c-0.235,0.038-0.472,0.071-0.702,0.114c-0.165,0.031-0.326,0.069-0.489,0.106c-0.225,0.044-0.45,0.091-0.671,0.146
		c-0.163,0.04-0.317,0.084-0.479,0.129c-0.216,0.059-0.434,0.118-0.648,0.183c-0.157,0.048-0.309,0.101-0.462,0.15
		c-0.21,0.069-0.422,0.142-0.628,0.217c-0.152,0.057-0.3,0.115-0.448,0.173c-0.203,0.081-0.408,0.162-0.607,0.247
		c-0.144,0.063-0.286,0.131-0.428,0.194c-0.198,0.093-0.398,0.185-0.589,0.281c-0.139,0.07-0.274,0.142-0.409,0.214
		c-0.193,0.1-0.385,0.203-0.571,0.31c-0.131,0.074-0.262,0.152-0.391,0.23c-0.184,0.111-0.371,0.224-0.553,0.342
		c-0.123,0.079-0.247,0.162-0.37,0.246c-0.18,0.121-0.358,0.245-0.533,0.373c-0.119,0.085-0.235,0.172-0.351,0.26
		c-0.171,0.131-0.343,0.263-0.512,0.402c-0.111,0.09-0.22,0.182-0.333,0.272c-0.163,0.143-0.329,0.285-0.49,0.43
		c-0.104,0.096-0.21,0.192-0.313,0.29c-0.158,0.148-0.313,0.3-0.468,0.454c-0.098,0.099-0.198,0.2-0.296,0.301
		c-0.152,0.157-0.298,0.319-0.443,0.479c-0.058,0.065-0.12,0.124-0.176,0.19c0.007-0.008,0.016-0.014,0.025-0.021
		c-3.559,4.037-5.517,9.377-5.516,14.823c0.004,13.501,7.071,22.982,22.076,24.014c8.512,0.589,16.528-3.253,19.152-10.628
		C60.463,98.199,53.3,92.7,50.083,96.529L50.083,96.529z"/>
	<path fill="#444B52" d="M189.783,90.887c-0.756-0.445-0.601-0.841,0.181-1.442c4.566-3.512,9.14-7.083,10.745-17.247
		c0.129-0.805,0.094-1.47-0.067-2.008c-0.026-0.102-0.067-0.197-0.105-0.29c-0.008-0.027-0.023-0.052-0.035-0.079
		c-0.03-0.063-0.06-0.124-0.094-0.184c-0.014-0.029-0.033-0.056-0.05-0.086c-0.032-0.051-0.066-0.101-0.102-0.152
		c-0.018-0.026-0.038-0.053-0.059-0.079c-0.039-0.049-0.081-0.096-0.122-0.139c-0.019-0.024-0.036-0.044-0.056-0.063
		c-0.059-0.054-0.116-0.106-0.173-0.154c-0.01-0.008-0.02-0.017-0.03-0.026c-0.07-0.055-0.145-0.108-0.218-0.156
		c-0.019-0.01-0.037-0.017-0.052-0.026c-0.063-0.038-0.123-0.071-0.187-0.101c-0.028-0.014-0.054-0.024-0.082-0.036
		c-0.058-0.026-0.114-0.049-0.173-0.071c-0.033-0.009-0.062-0.023-0.092-0.032c-0.06-0.019-0.119-0.034-0.182-0.053
		c-0.031-0.008-0.061-0.015-0.094-0.024c-0.067-0.014-0.139-0.027-0.211-0.04c-0.025-0.003-0.048-0.007-0.069-0.012
		c-0.099-0.014-0.196-0.024-0.298-0.03c-0.01,0-0.015,0-0.024,0c-0.092-0.005-0.185-0.008-0.281-0.008
		c-0.03,0-0.063,0.003-0.093,0.003c-0.071,0.003-0.146,0.005-0.217,0.01c-0.04,0.004-0.078,0.006-0.114,0.011
		c-0.072,0.005-0.14,0.013-0.209,0.022c-0.04,0.006-0.078,0.01-0.117,0.018c-0.074,0.012-0.146,0.025-0.221,0.039
		c-0.036,0.007-0.068,0.013-0.103,0.022c-0.098,0.02-0.19,0.043-0.284,0.068c-0.015,0.004-0.03,0.007-0.045,0.011
		c-0.108,0.029-0.218,0.063-0.325,0.098c-0.036,0.011-0.069,0.026-0.105,0.038c-0.074,0.025-0.15,0.052-0.225,0.08
		c-0.042,0.017-0.082,0.034-0.128,0.05c-0.066,0.028-0.134,0.058-0.2,0.086c-0.044,0.021-0.089,0.04-0.132,0.06
		c-0.065,0.031-0.129,0.063-0.197,0.097c-0.044,0.021-0.085,0.041-0.127,0.064c-0.072,0.036-0.144,0.077-0.215,0.118
		c-0.032,0.019-0.072,0.037-0.105,0.06c-0.102,0.058-0.205,0.119-0.304,0.186c-0.033,0.02-0.064,0.042-0.093,0.065
		c-0.071,0.047-0.141,0.094-0.213,0.145c-0.038,0.029-0.077,0.06-0.119,0.09c-0.059,0.045-0.118,0.09-0.176,0.135
		c-0.039,0.035-0.081,0.067-0.122,0.103c-0.054,0.046-0.11,0.091-0.164,0.14c-0.039,0.036-0.078,0.071-0.12,0.107
		c-0.053,0.051-0.106,0.104-0.164,0.156c-0.033,0.036-0.069,0.069-0.104,0.103c-0.069,0.073-0.139,0.148-0.206,0.224
		c-0.016,0.018-0.031,0.031-0.045,0.047c-0.102,0.118-0.204,0.234-0.308,0.35c-0.146,0.168-0.296,0.336-0.443,0.502
		c-3.505,3.957-6.986,7.52-12.005,9.944c-1.296,0.628-2.18,1.167-2.455-1.27c-0.268-2.37-0.05-4.825-0.668-7.128
		c-0.105-0.387-0.259-0.744-0.448-1.076l0.009,0.004c-0.027-0.043-0.055-0.085-0.08-0.127c-0.028-0.049-0.055-0.095-0.088-0.138
		c-0.056-0.088-0.119-0.174-0.185-0.258c-0.017-0.027-0.035-0.053-0.056-0.08c-0.084-0.104-0.173-0.204-0.266-0.301
		c-0.032-0.036-0.068-0.068-0.105-0.105c-0.062-0.062-0.127-0.125-0.196-0.185c-0.039-0.035-0.081-0.071-0.123-0.106
		c-0.068-0.056-0.137-0.111-0.21-0.164c-0.038-0.031-0.08-0.061-0.121-0.091c-0.09-0.062-0.183-0.124-0.275-0.182
		c-0.024-0.015-0.047-0.032-0.072-0.045c-0.116-0.07-0.238-0.136-0.361-0.196c-0.042-0.021-0.083-0.04-0.125-0.06
		c-0.086-0.042-0.173-0.079-0.26-0.116c-0.05-0.021-0.099-0.039-0.15-0.06c-0.086-0.033-0.173-0.065-0.262-0.093
		c-0.048-0.016-0.093-0.034-0.141-0.047c-0.113-0.036-0.226-0.068-0.343-0.098c-0.024-0.004-0.044-0.011-0.07-0.016
		c-0.134-0.034-0.273-0.061-0.413-0.085c-0.044-0.007-0.087-0.014-0.133-0.019c-0.098-0.017-0.196-0.03-0.294-0.04
		c-0.051-0.007-0.105-0.01-0.156-0.015c-0.094-0.008-0.194-0.014-0.291-0.019c-0.049-0.003-0.096-0.005-0.145-0.005
		c-0.125-0.003-0.247-0.003-0.371,0.003c-0.02,0-0.041,0-0.059,0c-0.144,0.005-0.286,0.018-0.427,0.033
		c-0.045,0.004-0.086,0.011-0.132,0.015c-0.1,0.014-0.197,0.029-0.295,0.046c-0.051,0.009-0.101,0.018-0.153,0.028
		c-0.094,0.02-0.188,0.038-0.28,0.061c-0.047,0.013-0.096,0.024-0.143,0.036c-0.117,0.031-0.231,0.067-0.343,0.103
		c-0.021,0.007-0.044,0.014-0.067,0.022c-0.131,0.044-0.259,0.095-0.387,0.15c-0.041,0.017-0.087,0.039-0.129,0.058
		c-0.086,0.041-0.17,0.081-0.254,0.123c-0.047,0.026-0.094,0.052-0.143,0.079c-0.08,0.042-0.156,0.09-0.232,0.137
		c-0.045,0.029-0.089,0.055-0.132,0.083c-0.097,0.064-0.185,0.13-0.276,0.197c-0.02,0.018-0.043,0.034-0.068,0.053
		c-0.104,0.083-0.208,0.175-0.307,0.269c-0.038,0.034-0.075,0.073-0.11,0.11c-0.063,0.063-0.129,0.129-0.189,0.197
		c-0.039,0.042-0.073,0.087-0.113,0.132c-0.057,0.068-0.111,0.14-0.164,0.213c-0.033,0.045-0.069,0.088-0.099,0.137
		c-0.063,0.092-0.122,0.188-0.181,0.289c-0.34,0.588-0.583,1.276-0.679,2.073c-1.427,11.888-0.928,22.909-0.012,33.808
		c0.546,6.48,8.74,8.042,10.556,3.003c0.964-2.673,0.354-5.666,0.954-8.381c0.717-3.246,3.534-2.34,6.334-0.436
		c4.198,2.851,6.978,7.316,10.25,11.676c3.473,4.63,9.275,1.351,8.538-3.251C201.107,101.757,196.601,94.919,189.783,90.887
		L189.783,90.887z"/>
	<path fill="#444B52" d="M276.85,110.435c-1.422-12.03-2.1-24.618-0.884-37.339c0.107-1.112-0.039-2.024-0.367-2.745
		c-0.058-0.125-0.119-0.241-0.189-0.357c-0.02-0.036-0.045-0.073-0.068-0.108c-0.052-0.082-0.105-0.16-0.166-0.234
		c-0.023-0.033-0.049-0.068-0.072-0.1c-0.084-0.1-0.168-0.196-0.258-0.284c-0.009-0.012-0.021-0.018-0.029-0.027
		c-0.084-0.083-0.171-0.157-0.264-0.227c-0.029-0.025-0.066-0.049-0.095-0.074c-0.077-0.054-0.155-0.107-0.233-0.157
		c-0.032-0.02-0.065-0.039-0.098-0.06c-0.108-0.061-0.219-0.12-0.334-0.172c-0.023-0.011-0.046-0.018-0.07-0.031
		c-0.095-0.039-0.193-0.079-0.294-0.115c-0.041-0.013-0.082-0.026-0.12-0.039c-0.094-0.031-0.189-0.055-0.285-0.077
		c-0.031-0.008-0.068-0.02-0.101-0.029c-0.129-0.026-0.256-0.05-0.387-0.068c-0.033-0.004-0.073-0.004-0.106-0.009
		c-0.101-0.012-0.199-0.022-0.303-0.026c-0.049-0.003-0.093-0.007-0.141-0.007c-0.103-0.005-0.206-0.005-0.31,0
		c-0.036,0-0.073,0-0.108,0c-0.135,0.007-0.268,0.018-0.406,0.033c-0.045,0.005-0.09,0.009-0.135,0.016
		c-0.099,0.013-0.194,0.029-0.293,0.046c-0.051,0.009-0.101,0.017-0.151,0.029c-0.108,0.022-0.215,0.046-0.324,0.076
		c-0.035,0.009-0.069,0.015-0.101,0.023c-0.134,0.037-0.266,0.078-0.397,0.125c-0.05,0.016-0.102,0.034-0.149,0.053
		c-0.093,0.033-0.182,0.069-0.272,0.105c-0.053,0.022-0.105,0.042-0.155,0.067c-0.111,0.048-0.22,0.1-0.329,0.156
		c-0.045,0.021-0.085,0.044-0.129,0.068c-0.106,0.057-0.21,0.115-0.312,0.177c-0.052,0.03-0.098,0.061-0.15,0.092
		c-0.081,0.051-0.158,0.104-0.236,0.16c-0.048,0.031-0.095,0.064-0.143,0.099c-0.113,0.085-0.228,0.172-0.335,0.262
		c-0.032,0.031-0.065,0.06-0.097,0.089c-0.082,0.07-0.163,0.143-0.24,0.217c-0.044,0.044-0.083,0.086-0.129,0.13
		c-0.068,0.069-0.133,0.144-0.199,0.217c-0.039,0.041-0.075,0.083-0.111,0.126c-0.091,0.11-0.185,0.224-0.268,0.341
		c-0.03,0.042-0.056,0.085-0.087,0.126c-0.039,0.059-0.084,0.117-0.123,0.18c0,0,0.009-0.004,0.012-0.006
		c-0.318,0.501-0.571,1.052-0.735,1.662c-1.844,7.018-1.812,11.793-1.985,12.751c-0.289,1.595-1.083,1.972-1.974,0.919
		c-3.063-3.626-5.806-7.53-8.763-10.667c0.008,0.006,0.018,0.013,0.027,0.022c-0.078-0.085-0.16-0.167-0.238-0.249
		c-0.073-0.075-0.145-0.15-0.213-0.224c-0.244-0.249-0.49-0.494-0.734-0.731c-0.045-0.047-0.096-0.09-0.14-0.136
		c-0.213-0.201-0.424-0.396-0.637-0.587c-0.072-0.063-0.143-0.13-0.215-0.191c-0.256-0.225-0.513-0.444-0.769-0.652
		c-0.033-0.025-0.066-0.049-0.096-0.075c-0.236-0.186-0.472-0.365-0.712-0.54c-0.073-0.054-0.148-0.106-0.226-0.158
		c-0.261-0.189-0.531-0.37-0.804-0.542c-0.005-0.004-0.007-0.006-0.014-0.011c-0.018-0.009-0.031-0.017-0.045-0.023
		c-0.148-0.095-0.295-0.182-0.442-0.269c-0.057-0.032-0.113-0.063-0.166-0.094c-0.108-0.062-0.217-0.12-0.324-0.177
		c-0.056-0.03-0.113-0.062-0.167-0.091c-0.119-0.061-0.236-0.119-0.353-0.176c-0.035-0.019-0.071-0.038-0.106-0.054
		c-0.147-0.071-0.293-0.133-0.434-0.196c-0.048-0.022-0.094-0.038-0.142-0.059c-0.099-0.041-0.198-0.081-0.293-0.117
		c-0.055-0.021-0.105-0.04-0.155-0.06c-0.099-0.034-0.198-0.069-0.293-0.099c-0.042-0.011-0.084-0.029-0.123-0.039
		c-0.131-0.041-0.259-0.078-0.387-0.113c-0.036-0.01-0.075-0.018-0.112-0.027c-0.095-0.023-0.184-0.044-0.273-0.062
		c-0.045-0.009-0.094-0.018-0.138-0.026c-0.084-0.016-0.167-0.029-0.248-0.041c-0.042-0.007-0.083-0.014-0.122-0.018
		c-0.117-0.017-0.23-0.027-0.341-0.036c-0.025,0-0.049-0.002-0.071-0.002c-0.09-0.006-0.18-0.008-0.266-0.008
		c-0.039,0-0.078,0-0.117,0.001c-0.072,0.001-0.143,0.004-0.214,0.009c-0.037,0.002-0.073,0.004-0.108,0.007
		c-0.089,0.008-0.176,0.018-0.259,0.032c-0.016,0.001-0.03,0.001-0.047,0.004c-0.095,0.018-0.186,0.035-0.28,0.058
		c-0.029,0.007-0.06,0.016-0.09,0.025c-0.065,0.015-0.125,0.033-0.187,0.053c-0.03,0.011-0.062,0.02-0.093,0.032
		c-0.065,0.024-0.13,0.049-0.193,0.077c-0.021,0.008-0.043,0.016-0.064,0.024c-0.077,0.037-0.156,0.074-0.232,0.118
		c-0.024,0.011-0.045,0.025-0.07,0.039c-0.053,0.032-0.104,0.064-0.158,0.098c-0.026,0.017-0.05,0.035-0.073,0.052
		c-0.052,0.036-0.103,0.073-0.151,0.113c-0.018,0.016-0.038,0.03-0.059,0.045c-0.063,0.056-0.126,0.113-0.186,0.171
		c-0.014,0.015-0.029,0.033-0.043,0.048c-0.046,0.046-0.091,0.094-0.133,0.143c-0.018,0.023-0.037,0.046-0.056,0.068
		c-0.039,0.047-0.075,0.096-0.11,0.144c-0.016,0.021-0.031,0.045-0.048,0.067c-0.048,0.073-0.096,0.144-0.137,0.216
		c-0.01,0.012-0.016,0.024-0.022,0.035c-0.035,0.063-0.071,0.129-0.104,0.196c-0.014,0.03-0.028,0.057-0.038,0.085
		c-0.016,0.027-0.029,0.055-0.04,0.082h0.004c-0.3,0.683-0.428,1.493-0.376,2.367c0.677,11.735,0.002,23.465-0.037,34.972
		c-0.024,6.631,6.546,5.813,9.603,2.113c3.036-3.679,2.75-9.398,3.171-14.718c0.158-2.015,1.32-1.514,2.104-0.525
		c4.441,5.574,8.379,11.448,14.061,14.998C271.766,113.381,277.181,113.241,276.85,110.435L276.85,110.435z"/>
	<path fill="#444B52" d="M99.454,72.158l0.006,0.004c-0.008-0.015-0.019-0.028-0.026-0.043c-0.033-0.065-0.07-0.131-0.106-0.194
		c-0.034-0.058-0.071-0.116-0.109-0.173c-0.042-0.061-0.083-0.12-0.128-0.181c-0.041-0.052-0.083-0.106-0.128-0.16
		c-0.048-0.056-0.094-0.113-0.144-0.165c-0.05-0.055-0.104-0.105-0.157-0.157c-0.091-0.085-0.186-0.17-0.283-0.249
		c-0.058-0.046-0.114-0.093-0.174-0.137c-0.06-0.044-0.125-0.085-0.188-0.128c-0.058-0.038-0.117-0.077-0.178-0.116
		c-0.066-0.038-0.133-0.075-0.201-0.114c-0.063-0.035-0.128-0.069-0.194-0.1c-0.068-0.035-0.137-0.07-0.207-0.102
		c-0.07-0.031-0.144-0.062-0.218-0.09c-0.068-0.03-0.134-0.058-0.202-0.086c-0.134-0.048-0.271-0.094-0.409-0.136
		c-0.07-0.02-0.144-0.039-0.219-0.059c-0.079-0.021-0.158-0.042-0.238-0.061c-0.078-0.018-0.156-0.033-0.234-0.05
		c-0.079-0.016-0.159-0.032-0.239-0.044c-0.078-0.013-0.156-0.027-0.235-0.038c-0.085-0.011-0.17-0.022-0.253-0.031
		c-0.078-0.008-0.152-0.017-0.229-0.026c-0.111-0.008-0.225-0.014-0.334-0.019c-0.107-0.004-0.21-0.008-0.313-0.008
		c-0.1-0.001-0.197-0.004-0.297,0c-0.077,0.002-0.155,0.005-0.23,0.01c-0.088,0.004-0.175,0.006-0.261,0.015
		c-0.079,0.006-0.157,0.014-0.235,0.022c-0.087,0.007-0.172,0.018-0.255,0.029c-0.079,0.01-0.156,0.021-0.232,0.032
		c-0.089,0.015-0.18,0.032-0.27,0.05c-0.069,0.012-0.137,0.025-0.203,0.038c-0.148,0.033-0.292,0.068-0.434,0.108
		c-0.07,0.019-0.136,0.042-0.205,0.064c-0.084,0.025-0.164,0.051-0.244,0.076c-0.071,0.024-0.143,0.052-0.215,0.077
		c-0.074,0.03-0.147,0.059-0.22,0.091c-0.071,0.027-0.139,0.06-0.207,0.09c-0.073,0.034-0.143,0.067-0.213,0.104
		c-0.065,0.034-0.13,0.066-0.193,0.098c-0.09,0.051-0.177,0.104-0.263,0.159c-0.084,0.05-0.164,0.105-0.247,0.161
		c-0.065,0.049-0.13,0.095-0.194,0.143c-0.056,0.044-0.108,0.09-0.16,0.137c-0.055,0.044-0.11,0.092-0.163,0.142
		c-0.052,0.049-0.101,0.096-0.149,0.148c-0.049,0.052-0.097,0.105-0.143,0.16c-0.046,0.051-0.091,0.101-0.131,0.154
		c-0.048,0.061-0.091,0.127-0.136,0.189c-0.046,0.069-0.093,0.138-0.134,0.208c-0.049,0.088-0.1,0.173-0.144,0.264l0.004-0.004
		c-0.206,0.43-0.331,0.907-0.346,1.432c-0.08,2.588,0.302,8.002-0.145,11.964c-0.097,0.847-0.613,1.941-1.448,2.103
		c-0.55,0.106-1.107,0.199-1.665,0.279c-0.225,0.034-0.452,0.065-0.679,0.092c-0.035,0.005-0.07,0.008-0.107,0.013
		c-0.259,0.031-0.521,0.06-0.784,0.086c-0.049,0.004-0.099,0.007-0.147,0.012c-0.21,0.02-0.419,0.035-0.628,0.049
		c-0.076,0.004-0.15,0.011-0.223,0.018c-0.21,0.011-0.418,0.02-0.629,0.029c-0.05,0.001-0.102,0.004-0.154,0.005
		c-0.257,0.008-0.513,0.011-0.77,0.011c-0.058,0-0.117-0.003-0.175-0.003c-0.201-0.003-0.401-0.005-0.599-0.013
		c-0.081-0.005-0.159-0.007-0.237-0.01c-0.201-0.011-0.403-0.023-0.607-0.04c-0.052-0.004-0.11-0.007-0.165-0.01
		c-0.253-0.02-0.507-0.048-0.76-0.08c-0.607-0.074-1.209-0.178-1.805-0.317c-0.993-0.228-1.178-1.749-1.312-2.762
		c-0.524-3.914-0.466-9.189-0.644-11.832c-0.032-0.456-0.144-0.868-0.319-1.242c0.002,0,0.004,0.001,0.004,0.001
		c-0.004-0.008-0.01-0.017-0.013-0.024c-0.031-0.065-0.065-0.128-0.101-0.188c-0.029-0.056-0.061-0.111-0.094-0.165
		c-0.038-0.06-0.08-0.12-0.12-0.179c-0.038-0.047-0.074-0.097-0.112-0.146c-0.046-0.056-0.091-0.112-0.141-0.166
		c-0.04-0.046-0.086-0.09-0.127-0.133c-0.054-0.052-0.105-0.104-0.158-0.153c-0.046-0.044-0.097-0.081-0.146-0.122
		c-0.106-0.086-0.214-0.169-0.328-0.248c-0.054-0.034-0.105-0.072-0.158-0.105c-0.067-0.042-0.132-0.079-0.201-0.117
		c-0.056-0.032-0.114-0.065-0.17-0.095c-0.07-0.036-0.141-0.07-0.212-0.104c-0.061-0.027-0.122-0.054-0.185-0.08
		c-0.074-0.032-0.145-0.063-0.221-0.092c-0.064-0.026-0.131-0.048-0.197-0.069c-0.076-0.028-0.149-0.055-0.227-0.079
		c-0.132-0.04-0.267-0.077-0.402-0.11c-0.076-0.02-0.156-0.035-0.234-0.051c-0.076-0.014-0.147-0.033-0.222-0.045
		c-0.083-0.015-0.163-0.027-0.243-0.039c-0.074-0.011-0.148-0.022-0.225-0.033c-0.082-0.008-0.164-0.018-0.245-0.025
		c-0.078-0.008-0.156-0.013-0.232-0.019c-0.082-0.004-0.164-0.012-0.245-0.014c-0.083-0.004-0.167-0.004-0.251-0.005
		c-0.108,0-0.216,0-0.324,0.004c-0.118,0.003-0.236,0.005-0.35,0.013c-0.082,0.006-0.16,0.016-0.238,0.023
		c-0.083,0.008-0.165,0.015-0.245,0.023c-0.08,0.011-0.162,0.023-0.242,0.038c-0.079,0.008-0.156,0.022-0.238,0.037
		c-0.079,0.013-0.159,0.029-0.238,0.046c-0.079,0.016-0.158,0.034-0.233,0.052c-0.077,0.018-0.155,0.036-0.235,0.059
		c-0.082,0.023-0.163,0.047-0.247,0.074c-0.116,0.034-0.23,0.072-0.346,0.114c-0.089,0.032-0.179,0.063-0.267,0.099
		c-0.071,0.03-0.141,0.061-0.212,0.092c-0.071,0.029-0.141,0.062-0.21,0.095c-0.072,0.035-0.141,0.07-0.21,0.107
		c-0.065,0.035-0.13,0.071-0.193,0.106c-0.068,0.04-0.134,0.082-0.2,0.121c-0.063,0.039-0.124,0.082-0.184,0.123
		c-0.064,0.043-0.126,0.086-0.187,0.129c-0.064,0.049-0.127,0.103-0.189,0.154c-0.091,0.078-0.182,0.157-0.27,0.24
		c-0.057,0.056-0.116,0.112-0.172,0.171c-0.051,0.053-0.095,0.108-0.142,0.163c-0.049,0.055-0.096,0.109-0.137,0.167
		c-0.047,0.058-0.089,0.118-0.131,0.178c-0.041,0.059-0.08,0.119-0.118,0.181c-0.038,0.063-0.075,0.126-0.111,0.191
		c-0.011,0.018-0.021,0.035-0.033,0.054c0.004-0.002,0.005-0.004,0.005-0.004c-0.196,0.379-0.346,0.793-0.418,1.252
		c-1.805,11.22-1,25.554-0.038,35.893c0.496,5.336,10.839,5.724,12.366,1.853c1.098-2.794,0.169-7.168,0.273-10.255
		c0.128-3.89,8.749-4.561,12.237-3.406c1.003,0.332,1.93,1.326,2.102,2.37c0.652,3.952-0.019,9.044,0.776,11.895
		c1.133,4.06,12.151,2.845,12.238-1.365c0.232-11.259-1.265-24.782-2.594-37.08C99.779,72.969,99.645,72.544,99.454,72.158
		L99.454,72.158z"/>
	<path fill="#444B52" d="M234.007,73.575c-0.017-0.019-0.034-0.035-0.05-0.053c-0.197-0.248-0.405-0.488-0.624-0.717
		c-0.02-0.022-0.039-0.04-0.059-0.062c-0.23-0.238-0.468-0.468-0.717-0.683c-0.22-0.19-0.444-0.369-0.67-0.543
		c-0.053-0.042-0.11-0.086-0.163-0.129c-0.226-0.169-0.453-0.333-0.683-0.489c-0.007-0.007-0.014-0.01-0.021-0.016
		c-0.227-0.149-0.454-0.292-0.683-0.43c-0.058-0.035-0.116-0.068-0.171-0.102c-0.236-0.137-0.475-0.27-0.715-0.394
		c-0.013-0.007-0.025-0.012-0.037-0.02c-0.23-0.116-0.463-0.227-0.697-0.33c-0.06-0.026-0.116-0.053-0.176-0.078
		c-0.244-0.106-0.493-0.207-0.74-0.301c-0.018-0.006-0.036-0.013-0.05-0.018c-0.236-0.086-0.476-0.166-0.712-0.242
		c-0.059-0.018-0.116-0.036-0.173-0.054c-0.253-0.076-0.507-0.146-0.764-0.209c-0.021-0.005-0.041-0.01-0.063-0.014
		c-0.242-0.057-0.481-0.108-0.722-0.156c-0.056-0.011-0.112-0.021-0.172-0.031c-0.257-0.048-0.518-0.088-0.78-0.122
		c-0.023-0.004-0.046-0.006-0.069-0.008c-0.241-0.033-0.487-0.056-0.731-0.074c-0.055-0.006-0.108-0.01-0.163-0.015
		c-0.264-0.018-0.531-0.032-0.796-0.037c-0.025,0-0.048,0-0.068,0c-0.252-0.005-0.499-0.003-0.75,0.003
		c-0.048,0-0.099,0.001-0.146,0.003c-0.271,0.009-0.541,0.023-0.81,0.044c-0.02,0.004-0.046,0.006-0.065,0.007
		c-0.255,0.019-0.508,0.047-0.762,0.079c-0.046,0.005-0.086,0.01-0.128,0.016c-0.273,0.037-0.546,0.077-0.818,0.125
		c-0.019,0.003-0.04,0.007-0.057,0.01c-0.26,0.048-0.519,0.1-0.776,0.157c-0.036,0.008-0.073,0.016-0.108,0.023
		c-0.273,0.061-0.546,0.129-0.821,0.205c-0.015,0.004-0.031,0.01-0.048,0.013c-0.262,0.075-0.526,0.152-0.785,0.234
		c-0.028,0.01-0.054,0.018-0.081,0.027c-0.275,0.088-0.55,0.183-0.821,0.284c-0.012,0.005-0.024,0.009-0.035,0.012
		c-0.266,0.101-0.533,0.207-0.795,0.316c-0.019,0.008-0.035,0.015-0.053,0.023c-0.272,0.116-0.544,0.235-0.813,0.362
		c-0.009,0.004-0.017,0.008-0.026,0.013c-0.267,0.125-0.533,0.257-0.793,0.392c-0.008,0.005-0.02,0.011-0.029,0.015
		c-0.27,0.14-0.535,0.289-0.8,0.44c-0.003,0.003-0.008,0.005-0.014,0.008c-0.267,0.153-0.527,0.311-0.786,0.473l-0.007,0.004
		c-0.26,0.164-0.518,0.335-0.773,0.512c-0.003,0.003-0.008,0.004-0.011,0.007c-0.512,0.352-1.011,0.727-1.493,1.12
		c-0.003,0.004-0.006,0.005-0.006,0.005c-0.487,0.398-0.958,0.812-1.41,1.248c-0.003,0.003-0.007,0.007-0.013,0.01
		c-0.45,0.434-0.883,0.887-1.3,1.357c-0.004,0.001-0.007,0.004-0.007,0.004V75.8c-2.179,2.462-3.851,5.413-4.726,8.681
		c-2.497,9.3,0.92,22.868,9.478,27.291c7.556,3.901,16.786,0.653,21.39-4.611c2.317-2.652,0.325-7.172-2.726-5.571
		c-3.085,1.621-7.525,2.365-11.435,0.585c-0.575-0.258-1.292-1.256,0.638-1.768c5.542-1.478,13.859-5.035,16.742-11.072
		c2.235-4.687,1.647-11.48-1.762-15.768C234,73.571,234.003,73.573,234.007,73.575L234.007,73.575z M215.237,93.638
		c-1.739,0.771-2.589,0.115-2.778-2.333c-0.429-5.628,2.112-11.329,7.877-12.818c3.29-0.85,5.766,0.191,6.561,4.121
		C227.714,86.658,220.889,91.136,215.237,93.638z"/>
</g>
</svg>
